application,brand,brand_facet,collection_facet,collection_name,color,color_code,color_facet,dealer_brand,edge,gallery_images,installation,length,location,location_facet,look,look_facet,looks_like,made_in_the_usa,manufacturer,name,oversized,returns_accepted,shade,shade_facet,ship_unit,shipping,sku,sku_display,sku_manufacturer,species,species_facet,status,style,style_code,surface_texture_facet,surface_type,swatch,tags,thickness,warranty_text,weight,width
residential,Mohawk,Mohawk,Celebration - Single Plank,Celebration - Single Plank,Honey Nut Oak,10,Beige,OpenLine,Square Edge,mmllc-images.s3.amazonaws.com/mohawk/rmlcdl11a_10.jpg,Uniclic,47.25 Inches,All Grades,All Grades,Wood,Traditional Wood,Oak,No,Mohawk,Mohawk Celebration - Single Plank Honey Nut Oak,No,Yes,Medium,Medium,Carton,0,CDL11A-10,CDL11A-10,CDL11A-10,Oak,Oak,active,,CDL11A,Embossed,Texture,mmllc-images.s3.amazonaws.com/mohawk/lcdl11a_10.jpg,,7 mm,"25-Year Residential Warranty for Residential Use 
Mohawk Industries is so confident in the design and durability of our Mohawk laminate flooring products and accessories that we back them with a 25-Year Warranty. This warranty covers defects in material and/or workmanship which relate to joint integrity, staining, fading, and wear resistance during normal residential use.

Joint Integrity The Mohawk Uniclic® system will not fail. Stain Resistance Mohawk flooring will resist staining. Fade Resistance Mohawk flooring will resist fading from exposure to sunlight or artificial light. Wear Resistance Mohawk flooring wear layer will not wear through the design layer.",27.3,"7 1/2"""
residential,Mohawk,Mohawk,Celebration - Single Plank,Celebration - Single Plank,Café Chic,11,Beige,OpenLine,Square Edge,mmllc-images.s3.amazonaws.com/mohawk/rmlcdl11a_11.jpg,Uniclic,47.25 Inches,All Grades,All Grades,Wood,Traditional Wood,Oak,No,Mohawk,Mohawk Celebration - Single Plank Café Chic,No,Yes,Dark,Dark,Carton,0,CDL11A-11,CDL11A-11,CDL11A-11,Oak,Oak,active,,CDL11A,Embossed,Texture,mmllc-images.s3.amazonaws.com/mohawk/lcdl11a_11.jpg,,7 mm,"25-Year Residential Warranty for Residential Use 
Mohawk Industries is so confident in the design and durability of our Mohawk laminate flooring products and accessories that we back them with a 25-Year Warranty. This warranty covers defects in material and/or workmanship which relate to joint integrity, staining, fading, and wear resistance during normal residential use.

Joint Integrity The Mohawk Uniclic® system will not fail. Stain Resistance Mohawk flooring will resist staining. Fade Resistance Mohawk flooring will resist fading from exposure to sunlight or artificial light. Wear Resistance Mohawk flooring wear layer will not wear through the design layer.",27.3,"7 1/2"""
residential,Mohawk,Mohawk,Celebration - Single Plank,Celebration - Single Plank,Chocolate Truffle,12,Brown,OpenLine,Square Edge,mmllc-images.s3.amazonaws.com/mohawk/rmlcdl11a_12.jpg,Uniclic,47.25 Inches,All Grades,All Grades,Wood,Traditional Wood,Oak,No,Mohawk,Mohawk Celebration - Single Plank Chocolate Truffle,No,Yes,Dark,Dark,Carton,0,CDL11A-12,CDL11A-12,CDL11A-12,Oak,Oak,active,,CDL11A,Embossed,Texture,mmllc-images.s3.amazonaws.com/mohawk/lcdl11a_12.jpg,,7 mm,"25-Year Residential Warranty for Residential Use 
Mohawk Industries is so confident in the design and durability of our Mohawk laminate flooring products and accessories that we back them with a 25-Year Warranty. This warranty covers defects in material and/or workmanship which relate to joint integrity, staining, fading, and wear resistance during normal residential use.

Joint Integrity The Mohawk Uniclic® system will not fail. Stain Resistance Mohawk flooring will resist staining. Fade Resistance Mohawk flooring will resist fading from exposure to sunlight or artificial light. Wear Resistance Mohawk flooring wear layer will not wear through the design layer.",27.3,"7 1/2"""
residential,Mohawk,Mohawk,Georgetown,Georgetown,Cinnamon Oak Plank,3,Red-Brown,OpenLine,Square Edge,mmllc-images.s3.amazonaws.com/mohawk/rmlcdl7_3.jpg,,54.33 Inches,All Grades,All Grades,Wood,Traditional Wood,Oak,No,Mohawk,Mohawk Georgetown Cinnamon Oak Plank,No,Yes,Medium,Medium,Carton,0,CDL7-3,CDL7-3,CDL7-3,Oak,Oak,active,,CDL7,Smooth,Smooth,mmllc-images.s3.amazonaws.com/mohawk/lcdl7_3.jpg,,8 mm,,30.1,"6 1/8"""
residential,Mohawk,Mohawk,Georgetown,Georgetown,Sierra Oak Plank,4,,OpenLine,Square Edge,mmllc-images.s3.amazonaws.com/mohawk/rmlcdl7_4.jpg,,54.33 Inches,All Grades,All Grades,Wood,Traditional Wood,Oak,No,Mohawk,Mohawk Georgetown Sierra Oak Plank,No,Yes,Medium,Medium,Carton,0,CDL7-4,CDL7-4,CDL7-4,Oak,Oak,active,,CDL7,Smooth,Smooth,mmllc-images.s3.amazonaws.com/mohawk/lcdl7_4.jpg,,8 mm,,30.1,"6 1/8"""
residential,Mohawk,Mohawk,Georgetown,Georgetown,Saddle Oak Plank,5,,OpenLine,Square Edge,mmllc-images.s3.amazonaws.com/mohawk/rmlcdl7_5.jpg,,54.33 Inches,All Grades,All Grades,Wood,Traditional Wood,Oak,No,Mohawk,Mohawk Georgetown Saddle Oak Plank,No,Yes,Dark,Dark,Carton,0,CDL7-5,CDL7-5,CDL7-5,Oak,Oak,active,,CDL7,Smooth,Smooth,mmllc-images.s3.amazonaws.com/mohawk/lcdl7_5.jpg,,8 mm,,30.1,"6 1/8"""
residential,Mohawk,Mohawk,Georgetown,Georgetown,Natural Merbau Plank,40,,OpenLine,Square Edge,mmllc-images.s3.amazonaws.com/mohawk/rmlcdl7_40.jpg,,54.33 Inches,All Grades,All Grades,Wood,Traditional Wood,Merbau,No,Mohawk,Mohawk Georgetown Natural Merbau Plank,No,Yes,Dark,Dark,Carton,0,CDL7-40,CDL7-40,CDL7-40,Merbau,Exotic,active,,CDL7,Smooth,Smooth,mmllc-images.s3.amazonaws.com/mohawk/lcdl7_40.jpg,,8 mm,,30.1,"6 1/8"""
residential,Mohawk,Mohawk,Festivalle,Festivalle,American Cherry,1,,OpenLine,Square Edge,mmllc-images.s3.amazonaws.com/mohawk/rmlcdl10_1.jpg,Uniclic,47.25 Inches,All Grades,All Grades,Wood,Traditional Wood,Cherry,No,Mohawk,Mohawk Festivalle American Cherry,No,Yes,Medium,Medium,Carton,0,CDL10-1,CDL10-1,CDL10-1,Cherry,Cherry,active,,CDL10,Embossed,Texture,mmllc-images.s3.amazonaws.com/mohawk/lcdl10_1.jpg,,7 mm,"25-Year Residential Warranty for Residential Use 
Mohawk Industries is so confident in the design and durability of our Mohawk laminate flooring products and accessories that we back them with a 25-Year Warranty. This warranty covers defects in material and/or workmanship which relate to joint integrity, staining, fading, and wear resistance during normal residential use.

Joint Integrity The Mohawk Uniclic® system will not fail. Stain Resistance Mohawk flooring will resist staining. Fade Resistance Mohawk flooring will resist fading from exposure to sunlight or artificial light. Wear Resistance Mohawk flooring wear layer will not wear through the design layer.",27.3,"7 1/2"""
residential,Mohawk,Mohawk,Festivalle,Festivalle,Northern Maple,3,,OpenLine,Square Edge,mmllc-images.s3.amazonaws.com/mohawk/rmlcdl10_3.jpg,Uniclic,47.25 Inches,All Grades,All Grades,Wood,Traditional Wood,Maple,No,Mohawk,Mohawk Festivalle Northern Maple,No,Yes,Light,Light,Carton,0,CDL10-3,CDL10-3,CDL10-3,Maple,Maple,active,,CDL10,Embossed,Texture,mmllc-images.s3.amazonaws.com/mohawk/lcdl10_3.jpg,,7 mm,"25-Year Residential Warranty for Residential Use 
Mohawk Industries is so confident in the design and durability of our Mohawk laminate flooring products and accessories that we back them with a 25-Year Warranty. This warranty covers defects in material and/or workmanship which relate to joint integrity, staining, fading, and wear resistance during normal residential use.

Joint Integrity The Mohawk Uniclic® system will not fail. Stain Resistance Mohawk flooring will resist staining. Fade Resistance Mohawk flooring will resist fading from exposure to sunlight or artificial light. Wear Resistance Mohawk flooring wear layer will not wear through the design layer.",27.3,"7 1/2"""
residential,Mohawk,Mohawk,Festivalle,Festivalle,Butterscotch Oak,4,,OpenLine,Square Edge,mmllc-images.s3.amazonaws.com/mohawk/rmlcdl10_4.jpg,Uniclic,47.25 Inches,All Grades,All Grades,Wood,Traditional Wood,Oak,No,Mohawk,Mohawk Festivalle Butterscotch Oak,No,Yes,Medium,Medium,Carton,0,CDL10-4,CDL10-4,CDL10-4,Oak,Oak,active,,CDL10,Embossed,Texture,mmllc-images.s3.amazonaws.com/mohawk/lcdl10_4.jpg,,7 mm,"25-Year Residential Warranty for Residential Use 
Mohawk Industries is so confident in the design and durability of our Mohawk laminate flooring products and accessories that we back them with a 25-Year Warranty. This warranty covers defects in material and/or workmanship which relate to joint integrity, staining, fading, and wear resistance during normal residential use.

Joint Integrity The Mohawk Uniclic® system will not fail. Stain Resistance Mohawk flooring will resist staining. Fade Resistance Mohawk flooring will resist fading from exposure to sunlight or artificial light. Wear Resistance Mohawk flooring wear layer will not wear through the design layer.",27.3,"7 1/2"""
residential,Mohawk,Mohawk,Festivalle,Festivalle,Sunset American Cherry,6,,OpenLine,Square Edge,mmllc-images.s3.amazonaws.com/mohawk/rmlcdl10_6.jpg,Uniclic,47.25 Inches,All Grades,All Grades,Wood,Traditional Wood,Cherry,No,Mohawk,Mohawk Festivalle Sunset American Cherry,No,Yes,Dark,Dark,Carton,0,CDL10-6,CDL10-6,CDL10-6,Cherry,Cherry,active,,CDL10,Embossed,Texture,mmllc-images.s3.amazonaws.com/mohawk/lcdl10_6.jpg,,7 mm,"25-Year Residential Warranty for Residential Use 
Mohawk Industries is so confident in the design and durability of our Mohawk laminate flooring products and accessories that we back them with a 25-Year Warranty. This warranty covers defects in material and/or workmanship which relate to joint integrity, staining, fading, and wear resistance during normal residential use.

Joint Integrity The Mohawk Uniclic® system will not fail. Stain Resistance Mohawk flooring will resist staining. Fade Resistance Mohawk flooring will resist fading from exposure to sunlight or artificial light. Wear Resistance Mohawk flooring wear layer will not wear through the design layer.",27.3,"7 1/2"""
residential,Mohawk,Mohawk,Festivalle,Festivalle,Honey Oak,7,,OpenLine,Square Edge,mmllc-images.s3.amazonaws.com/mohawk/rmlcdl10_7.jpg,Uniclic,47.25 Inches,All Grades,All Grades,Wood,Traditional Wood,Oak,No,Mohawk,Mohawk Festivalle Honey Oak,No,Yes,Medium,Medium,Carton,0,CDL10-7,CDL10-7,CDL10-7,Oak,Oak,active,,CDL10,Embossed,Texture,mmllc-images.s3.amazonaws.com/mohawk/lcdl10_7.jpg,,7 mm,"25-Year Residential Warranty for Residential Use 
Mohawk Industries is so confident in the design and durability of our Mohawk laminate flooring products and accessories that we back them with a 25-Year Warranty. This warranty covers defects in material and/or workmanship which relate to joint integrity, staining, fading, and wear resistance during normal residential use.

Joint Integrity The Mohawk Uniclic® system will not fail. Stain Resistance Mohawk flooring will resist staining. Fade Resistance Mohawk flooring will resist fading from exposure to sunlight or artificial light. Wear Resistance Mohawk flooring wear layer will not wear through the design layer.",27.3,"7 1/2"""
residential,Mohawk,Mohawk,Festivalle,Festivalle,Cambridge Oak,10,,OpenLine,Square Edge,mmllc-images.s3.amazonaws.com/mohawk/rmlcdl10_10.jpg,Uniclic,47.25 Inches,All Grades,All Grades,Wood,Traditional Wood,Oak,No,Mohawk,Mohawk Festivalle Cambridge Oak,No,Yes,Medium,Medium,Carton,0,CDL10-10,CDL10-10,CDL10-10,Oak,Oak,active,,CDL10,Embossed,Texture,mmllc-images.s3.amazonaws.com/mohawk/lcdl10_10.jpg,,7 mm,"25-Year Residential Warranty for Residential Use 
Mohawk Industries is so confident in the design and durability of our Mohawk laminate flooring products and accessories that we back them with a 25-Year Warranty. This warranty covers defects in material and/or workmanship which relate to joint integrity, staining, fading, and wear resistance during normal residential use.

Joint Integrity The Mohawk Uniclic® system will not fail. Stain Resistance Mohawk flooring will resist staining. Fade Resistance Mohawk flooring will resist fading from exposure to sunlight or artificial light. Wear Resistance Mohawk flooring wear layer will not wear through the design layer.",27.3,"7 1/2"""
residential,Mohawk,Mohawk,Festivalle,Festivalle,Burnished Brown Oak,11,,OpenLine,Square Edge,mmllc-images.s3.amazonaws.com/mohawk/rmlcdl10_11.jpg,Uniclic,47.25 Inches,All Grades,All Grades,Wood,Traditional Wood,Oak,No,Mohawk,Mohawk Festivalle Burnished Brown Oak,No,Yes,Dark,Dark,Carton,0,CDL10-11,CDL10-11,CDL10-11,Oak,Oak,active,,CDL10,Embossed,Texture,mmllc-images.s3.amazonaws.com/mohawk/lcdl10_11.jpg,,7 mm,"25-Year Residential Warranty for Residential Use 
Mohawk Industries is so confident in the design and durability of our Mohawk laminate flooring products and accessories that we back them with a 25-Year Warranty. This warranty covers defects in material and/or workmanship which relate to joint integrity, staining, fading, and wear resistance during normal residential use.

Joint Integrity The Mohawk Uniclic® system will not fail. Stain Resistance Mohawk flooring will resist staining. Fade Resistance Mohawk flooring will resist fading from exposure to sunlight or artificial light. Wear Resistance Mohawk flooring wear layer will not wear through the design layer.",27.3,"7 1/2"""
residential,Mohawk,Mohawk,Festivalle,Festivalle,Tuscany Oak,12,,OpenLine,Square Edge,mmllc-images.s3.amazonaws.com/mohawk/rmlcdl10_12.jpg,Uniclic,47.25 Inches,All Grades,All Grades,Wood,Traditional Wood,Oak,No,Mohawk,Mohawk Festivalle Tuscany Oak,No,Yes,Medium,Medium,Carton,0,CDL10-12,CDL10-12,CDL10-12,Oak,Oak,active,,CDL10,Embossed,Texture,mmllc-images.s3.amazonaws.com/mohawk/lcdl10_12.jpg,,7 mm,"25-Year Residential Warranty for Residential Use 
Mohawk Industries is so confident in the design and durability of our Mohawk laminate flooring products and accessories that we back them with a 25-Year Warranty. This warranty covers defects in material and/or workmanship which relate to joint integrity, staining, fading, and wear resistance during normal residential use.

Joint Integrity The Mohawk Uniclic® system will not fail. Stain Resistance Mohawk flooring will resist staining. Fade Resistance Mohawk flooring will resist fading from exposure to sunlight or artificial light. Wear Resistance Mohawk flooring wear layer will not wear through the design layer.",27.3,"7 1/2"""
residential,Mohawk,Mohawk,Festivalle,Festivalle,Golden Blonde Oak,13,,OpenLine,Square Edge,mmllc-images.s3.amazonaws.com/mohawk/rmlcdl10_13.jpg,Uniclic,47.25 Inches,All Grades,All Grades,Wood,Traditional Wood,Oak,No,Mohawk,Mohawk Festivalle Golden Blonde Oak,No,Yes,Light,Light,Carton,0,CDL10-13,CDL10-13,CDL10-13,Oak,Oak,active,,CDL10,Embossed,Texture,mmllc-images.s3.amazonaws.com/mohawk/lcdl10_13.jpg,,7 mm,"25-Year Residential Warranty for Residential Use 
Mohawk Industries is so confident in the design and durability of our Mohawk laminate flooring products and accessories that we back them with a 25-Year Warranty. This warranty covers defects in material and/or workmanship which relate to joint integrity, staining, fading, and wear resistance during normal residential use.

Joint Integrity The Mohawk Uniclic® system will not fail. Stain Resistance Mohawk flooring will resist staining. Fade Resistance Mohawk flooring will resist fading from exposure to sunlight or artificial light. Wear Resistance Mohawk flooring wear layer will not wear through the design layer.",27.3,"7 1/2"""
residential,Mohawk,Mohawk,Celebration - 2 Plank,Celebration - 2 Plank,Blonde Acacia,1,,OpenLine,Square Edge,mmllc-images.s3.amazonaws.com/mohawk/rmlcdl11_1.jpg,Uniclic,47.25 Inches,All Grades,All Grades,Wood,Traditional Wood,Acacia,No,Mohawk,Mohawk Celebration - 2 Plank Blonde Acacia,No,Yes,Light,Light,Carton,0,CDL11-1,CDL11-1,CDL11-1,Acacia,Acacia,active,,CDL11,Embossed,Texture,mmllc-images.s3.amazonaws.com/mohawk/lcdl11_1.jpg,,7 mm,"25-Year Residential Warranty for Residential Use 
Mohawk Industries is so confident in the design and durability of our Mohawk laminate flooring products and accessories that we back them with a 25-Year Warranty. This warranty covers defects in material and/or workmanship which relate to joint integrity, staining, fading, and wear resistance during normal residential use.

Joint Integrity The Mohawk Uniclic® system will not fail. Stain Resistance Mohawk flooring will resist staining. Fade Resistance Mohawk flooring will resist fading from exposure to sunlight or artificial light. Wear Resistance Mohawk flooring wear layer will not wear through the design layer.",27.3,"7 1/2"""
residential,Mohawk,Mohawk,Celebration,Celebration,Honey Nut Oak,10,Beige,OpenLine,Square Edge,mmllc-images.s3.amazonaws.com/mohawk/rmlcdl11_10.jpg,Uniclic,47.25 Inches,All Grades,All Grades,Wood,Traditional Wood,Oak,No,Mohawk,Mohawk Celebration Honey Nut Oak,No,Yes,Medium,Medium,Carton,0,CDL11-10,CDL11-10,CDL11-10,Oak,Oak,active,,CDL11,Embossed,Texture,mmllc-images.s3.amazonaws.com/mohawk/lcdl11_10.jpg,,7 mm,"25-Year Residential Warranty for Residential Use 
Mohawk Industries is so confident in the design and durability of our Mohawk laminate flooring products and accessories that we back them with a 25-Year Warranty. This warranty covers defects in material and/or workmanship which relate to joint integrity, staining, fading, and wear resistance during normal residential use.

Joint Integrity The Mohawk Uniclic® system will not fail. Stain Resistance Mohawk flooring will resist staining. Fade Resistance Mohawk flooring will resist fading from exposure to sunlight or artificial light. Wear Resistance Mohawk flooring wear layer will not wear through the design layer.",27.3,"7 1/2"""
residential,Mohawk,Mohawk,Celebration,Celebration,Café Chic Walnut,11,,OpenLine,Square Edge,mmllc-images.s3.amazonaws.com/mohawk/rmlcdl11_11.jpg,Uniclic,47.25 Inches,All Grades,All Grades,Wood,Traditional Wood,Walnut,No,Mohawk,Mohawk Celebration Café Chic Walnut,No,Yes,Medium,Medium,Carton,0,CDL11-11,CDL11-11,CDL11-11,Walnut,Walnut,active,,CDL11,Embossed,Texture,mmllc-images.s3.amazonaws.com/mohawk/lcdl11_11.jpg,,7 mm,"25-Year Residential Warranty for Residential Use 
Mohawk Industries is so confident in the design and durability of our Mohawk laminate flooring products and accessories that we back them with a 25-Year Warranty. This warranty covers defects in material and/or workmanship which relate to joint integrity, staining, fading, and wear resistance during normal residential use.

Joint Integrity The Mohawk Uniclic® system will not fail. Stain Resistance Mohawk flooring will resist staining. Fade Resistance Mohawk flooring will resist fading from exposure to sunlight or artificial light. Wear Resistance Mohawk flooring wear layer will not wear through the design layer.",27.3,"7 1/2"""
residential,Mohawk,Mohawk,Celebration,Celebration,Chocolate Truffle Oak,12,,OpenLine,Square Edge,mmllc-images.s3.amazonaws.com/mohawk/rmlcdl11_12.jpg,Uniclic,47.25 Inches,All Grades,All Grades,Wood,Traditional Wood,Oak,No,Mohawk,Mohawk Celebration Chocolate Truffle Oak,No,Yes,Dark,Dark,Carton,0,CDL11-12,CDL11-12,CDL11-12,Oak,Oak,active,,CDL11,Embossed,Texture,mmllc-images.s3.amazonaws.com/mohawk/lcdl11_12.jpg,,7 mm,"25-Year Residential Warranty for Residential Use 
Mohawk Industries is so confident in the design and durability of our Mohawk laminate flooring products and accessories that we back them with a 25-Year Warranty. This warranty covers defects in material and/or workmanship which relate to joint integrity, staining, fading, and wear resistance during normal residential use.

Joint Integrity The Mohawk Uniclic® system will not fail. Stain Resistance Mohawk flooring will resist staining. Fade Resistance Mohawk flooring will resist fading from exposure to sunlight or artificial light. Wear Resistance Mohawk flooring wear layer will not wear through the design layer.",27.3,"7 1/2"""
residential,Mohawk,Mohawk,Celebration - 2 Plank,Celebration - 2 Plank,Pearl Platinum Oak,14,,OpenLine,Square Edge,mmllc-images.s3.amazonaws.com/mohawk/rmlcdl11_14.jpg,Uniclic,47.25 Inches,All Grades,All Grades,Wood,Traditional Wood,Oak,No,Mohawk,Mohawk Celebration - 2 Plank Pearl Platinum Oak,No,Yes,Dark,Dark,Carton,0,CDL11-14,CDL11-14,CDL11-14,Oak,Oak,active,,CDL11,Embossed,Texture,mmllc-images.s3.amazonaws.com/mohawk/lcdl11_14.jpg,,7 mm,"25-Year Residential Warranty for Residential Use 
Mohawk Industries is so confident in the design and durability of our Mohawk laminate flooring products and accessories that we back them with a 25-Year Warranty. This warranty covers defects in material and/or workmanship which relate to joint integrity, staining, fading, and wear resistance during normal residential use.

Joint Integrity The Mohawk Uniclic® system will not fail. Stain Resistance Mohawk flooring will resist staining. Fade Resistance Mohawk flooring will resist fading from exposure to sunlight or artificial light. Wear Resistance Mohawk flooring wear layer will not wear through the design layer.",27.3,"7 1/2"""
residential,Mohawk,Mohawk,Celebration - 2 Plank,Celebration - 2 Plank,Golden Harvest Oak,15,,OpenLine,Square Edge,mmllc-images.s3.amazonaws.com/mohawk/rmlcdl11_15.jpg,Uniclic,47.25 Inches,All Grades,All Grades,Wood,Traditional Wood,Oak,No,Mohawk,Mohawk Celebration - 2 Plank Golden Harvest Oak,No,Yes,Light,Light,Carton,0,CDL11-15,CDL11-15,CDL11-15,Oak,Oak,active,,CDL11,Embossed,Texture,mmllc-images.s3.amazonaws.com/mohawk/lcdl11_15.jpg,,7 mm,"25-Year Residential Warranty for Residential Use 
Mohawk Industries is so confident in the design and durability of our Mohawk laminate flooring products and accessories that we back them with a 25-Year Warranty. This warranty covers defects in material and/or workmanship which relate to joint integrity, staining, fading, and wear resistance during normal residential use.

Joint Integrity The Mohawk Uniclic® system will not fail. Stain Resistance Mohawk flooring will resist staining. Fade Resistance Mohawk flooring will resist fading from exposure to sunlight or artificial light. Wear Resistance Mohawk flooring wear layer will not wear through the design layer.",27.3,"7 1/2"""
residential,Mohawk,Mohawk,Celebration - 2 Plank,Celebration - 2 Plank,Warm Autum Oak,16,,OpenLine,Square Edge,mmllc-images.s3.amazonaws.com/mohawk/rmlcdl11_16.jpg,Uniclic,47.25 Inches,All Grades,All Grades,Wood,Traditional Wood,Oak,No,Mohawk,Mohawk Celebration - 2 Plank Warm Autum Oak,No,Yes,Medium,Medium,Carton,0,CDL11-16,CDL11-16,CDL11-16,Oak,Oak,active,,CDL11,Embossed,Texture,mmllc-images.s3.amazonaws.com/mohawk/lcdl11_16.jpg,,7 mm,"25-Year Residential Warranty for Residential Use 
Mohawk Industries is so confident in the design and durability of our Mohawk laminate flooring products and accessories that we back them with a 25-Year Warranty. This warranty covers defects in material and/or workmanship which relate to joint integrity, staining, fading, and wear resistance during normal residential use.

Joint Integrity The Mohawk Uniclic® system will not fail. Stain Resistance Mohawk flooring will resist staining. Fade Resistance Mohawk flooring will resist fading from exposure to sunlight or artificial light. Wear Resistance Mohawk flooring wear layer will not wear through the design layer.",27.3,"7 1/2"""
residential,Mohawk,Mohawk,Carrolton,Carrolton,Natural Teak Plank,1,,OpenLine,Square Edge,mmllc-images.s3.amazonaws.com/mohawk/rmlcdl16_1.jpg,,47.25 Inches,All Grades,All Grades,Wood,Traditional Wood,Teak,No,Mohawk,Mohawk Carrolton Natural Teak Plank,No,Yes,Light,Light,Carton,0,CDL16-1,CDL16-1,CDL16-1,Teak,Teak,active,,CDL16,Embossed,Texture,mmllc-images.s3.amazonaws.com/mohawk/lcdl16_1.jpg,,8 mm,,26.3,"7 1/2"""
residential,Mohawk,Mohawk,Carrolton,Carrolton,Warmed Maple Plank,2,,OpenLine,Square Edge,mmllc-images.s3.amazonaws.com/mohawk/rmlcdl16_2.jpg,,47.25 Inches,All Grades,All Grades,Wood,Traditional Wood,Maple,No,Mohawk,Mohawk Carrolton Warmed Maple Plank,No,Yes,Light,Light,Carton,0,CDL16-2,CDL16-2,CDL16-2,Maple,Maple,active,,CDL16,Embossed,Texture,mmllc-images.s3.amazonaws.com/mohawk/lcdl16_2.jpg,,8 mm,,26.3,"7 1/2"""
residential,Mohawk,Mohawk,Carrolton,Carrolton,Harvest Oak Plank,3,,OpenLine,Square Edge,mmllc-images.s3.amazonaws.com/mohawk/rmlcdl16_3.jpg,,47.25 Inches,All Grades,All Grades,Wood,Traditional Wood,Oak,No,Mohawk,Mohawk Carrolton Harvest Oak Plank,No,Yes,Medium,Medium,Carton,0,CDL16-3,CDL16-3,CDL16-3,Oak,Oak,active,,CDL16,Embossed,Texture,mmllc-images.s3.amazonaws.com/mohawk/lcdl16_3.jpg,,8 mm,,26.3,"7 1/2"""
residential,Mohawk,Mohawk,Carrolton,Carrolton,Ebony Oak,8,,OpenLine,Square Edge,mmllc-images.s3.amazonaws.com/mohawk/rmlcdl16_8.jpg,,47.25 Inches,All Grades,All Grades,Wood,Traditional Wood,Oak,No,Mohawk,Mohawk Carrolton Ebony Oak,No,Yes,Dark,Dark,Carton,0,CDL16-8,CDL16-8,CDL16-8,Oak,Oak,active,,CDL16,Embossed,Texture,mmllc-images.s3.amazonaws.com/mohawk/lcdl16_8.jpg,,8 mm,,26.3,"7 1/2"""
residential,Mohawk,Mohawk,Carrolton,Carrolton,Hickory Shadow Oak,9,,OpenLine,Square Edge,mmllc-images.s3.amazonaws.com/mohawk/rmlcdl16_9.jpg,,47.25 Inches,All Grades,All Grades,Wood,Traditional Wood,Oak,No,Mohawk,Mohawk Carrolton Hickory Shadow Oak,No,Yes,Dark,Dark,Carton,0,CDL16-9,CDL16-9,CDL16-9,Oak,Oak,active,,CDL16,Embossed,Texture,mmllc-images.s3.amazonaws.com/mohawk/lcdl16_9.jpg,,8 mm,,26.3,"7 1/2"""
residential,Mohawk,Mohawk,Carrolton,Carrolton,Wheat Oak Strip,10,,OpenLine,Square Edge,mmllc-images.s3.amazonaws.com/mohawk/rmlcdl16_10.jpg,,47.25 Inches,All Grades,All Grades,Wood,Traditional Wood,Oak,No,Mohawk,Mohawk Carrolton Wheat Oak Strip,No,Yes,Light,Light,Carton,0,CDL16-10,CDL16-10,CDL16-10,Oak,Oak,active,,CDL16,Embossed,Texture,mmllc-images.s3.amazonaws.com/mohawk/lcdl16_10.jpg,,8 mm,,26.3,"7 1/2"""
residential,Mohawk,Mohawk,Carrolton,Carrolton,Amber Walnut Plank,12,,OpenLine,Square Edge,mmllc-images.s3.amazonaws.com/mohawk/rmlcdl16_12.jpg,,47.25 Inches,All Grades,All Grades,Wood,Traditional Wood,Walnut,No,Mohawk,Mohawk Carrolton Amber Walnut Plank,No,Yes,Medium,Medium,Carton,0,CDL16-12,CDL16-12,CDL16-12,Walnut,Walnut,active,,CDL16,Embossed,Texture,mmllc-images.s3.amazonaws.com/mohawk/lcdl16_12.jpg,,8 mm,,26.3,"7 1/2"""
residential,Mohawk,Mohawk,Carrolton,Carrolton,Antique Barn Plank,31,,OpenLine,Square Edge,mmllc-images.s3.amazonaws.com/mohawk/rmlcdl16_31.jpg,,47.25 Inches,All Grades,All Grades,Wood,Traditional Wood,Oak,No,Mohawk,Mohawk Carrolton Antique Barn Plank,No,Yes,Medium,Medium,Carton,0,CDL16-31,CDL16-31,CDL16-31,Oak,Oak,active,,CDL16,Embossed,Texture,mmllc-images.s3.amazonaws.com/mohawk/lcdl16_31.jpg,,8 mm,,26.3,"7 1/2"""
residential,Mohawk,Mohawk,Carrolton,Carrolton,Burnished Oak Plank,32,,OpenLine,Square Edge,mmllc-images.s3.amazonaws.com/mohawk/rmlcdl16_32.jpg,,47.25 Inches,All Grades,All Grades,Wood,Traditional Wood,Oak,No,Mohawk,Mohawk Carrolton Burnished Oak Plank,No,Yes,Dark,Dark,Carton,0,CDL16-32,CDL16-32,CDL16-32,Oak,Oak,active,,CDL16,Embossed,Texture,mmllc-images.s3.amazonaws.com/mohawk/lcdl16_32.jpg,,8 mm,,26.3,"7 1/2"""
residential,Mohawk,Mohawk,Carrolton,Carrolton,Natural Maple Strip,40,,OpenLine,Square Edge,mmllc-images.s3.amazonaws.com/mohawk/rmlcdl16_40.jpg,,47.25 Inches,All Grades,All Grades,Wood,Traditional Wood,Oak,No,Mohawk,Mohawk Carrolton Natural Maple Strip,No,Yes,Light,Light,Carton,0,CDL16-40,CDL16-40,CDL16-40,Oak,Oak,active,,CDL16,Embossed,Texture,mmllc-images.s3.amazonaws.com/mohawk/lcdl16_40.jpg,,8 mm,,26.3,"7 1/2"""
residential,Mohawk,Mohawk,Carrolton,Carrolton,Aged Bark Oak,93,,OpenLine,Square Edge,mmllc-images.s3.amazonaws.com/mohawk/rmlcdl16_93.jpg,,47.25 Inches,All Grades,All Grades,Wood,Traditional Wood,Oak,No,Mohawk,Mohawk Carrolton Aged Bark Oak,No,Yes,Medium,Medium,Carton,0,CDL16-93,CDL16-93,CDL16-93,Oak,Oak,active,,CDL16,Embossed,Texture,mmllc-images.s3.amazonaws.com/mohawk/lcdl16_93.jpg,,8 mm,,26.3,"7 1/2"""
residential,Mohawk,Mohawk,Carrolton,Carrolton,Honey Caramel Hickory,95,,OpenLine,Square Edge,mmllc-images.s3.amazonaws.com/mohawk/rmlcdl16_95.jpg,,47.25 Inches,All Grades,All Grades,Wood,Traditional Wood,Hickory,No,Mohawk,Mohawk Carrolton Honey Caramel Hickory,No,Yes,Medium,Medium,Carton,0,CDL16-95,CDL16-95,CDL16-95,Hickory,Hickory,active,,CDL16,Embossed,Texture,mmllc-images.s3.amazonaws.com/mohawk/lcdl16_95.jpg,,8 mm,,26.3,"7 1/2"""
residential,Mohawk,Mohawk,Carrolton,Carrolton,Ground Nutmeg Hickory,97,Brown,OpenLine,Square Edge,mmllc-images.s3.amazonaws.com/mohawk/rmlcdl16_97.jpg,,47.25 Inches,All Grades,All Grades,Wood,Traditional Wood,Hickory,No,Mohawk,Mohawk Carrolton Ground Nutmeg Hickory,No,Yes,Dark,Dark,Carton,0,CDL16-97,CDL16-97,CDL16-97,Hickory,Hickory,active,,CDL16,Embossed,Texture,mmllc-images.s3.amazonaws.com/mohawk/lcdl16_97.jpg,,8 mm,,26.3,"7 1/2"""
residential,Mohawk,Mohawk,Carrolton,Carrolton,Grey Flannel Oak,98,,OpenLine,Square Edge,mmllc-images.s3.amazonaws.com/mohawk/rmlcdl16_98.jpg,,47.25 Inches,All Grades,All Grades,Wood,Traditional Wood,Oak,No,Mohawk,Mohawk Carrolton Grey Flannel Oak,No,Yes,Light,Light,Carton,0,CDL16-98,CDL16-98,CDL16-98,Oak,Oak,active,,CDL16,Embossed,Texture,mmllc-images.s3.amazonaws.com/mohawk/lcdl16_98.jpg,,8 mm,,26.3,"7 1/2"""
residential,Mohawk,Mohawk,Carrolton,Carrolton,Toasted Butternut,99,,OpenLine,Square Edge,mmllc-images.s3.amazonaws.com/mohawk/rmlcdl16_99.jpg,,47.25 Inches,All Grades,All Grades,Wood,Traditional Wood,Butternut,No,Mohawk,Mohawk Carrolton Toasted Butternut,No,Yes,Medium,Medium,Carton,0,CDL16-99,CDL16-99,CDL16-99,Butternut,Fruitwood,active,,CDL16,Embossed,Texture,mmllc-images.s3.amazonaws.com/mohawk/lcdl16_99.jpg,,8 mm,,26.3,"7 1/2"""
residential,Mohawk,Mohawk,Marcina,Marcina,Chocolate Maple,4,,OpenLine,Eased Edge,mmllc-images.s3.amazonaws.com/mohawk/rmlcdl19_4.jpg,,54.33 Inches,All Grades,All Grades,Wood,Traditional Wood,Maple,No,Mohawk,Mohawk Marcina Chocolate Maple,No,Yes,Dark,Dark,Carton,0,CDL19-4,CDL19-4,CDL19-4,Maple,Maple,active,Hand-Scraped Wood,CDL19,Embossed,Texture,mmllc-images.s3.amazonaws.com/mohawk/lcdl19_4.jpg,,8 mm,,30.0,"6 5/8"""
residential,Mohawk,Mohawk,Marcina,Marcina,Bourbon Pecan,91,,OpenLine,Pillowed/Pillowed,mmllc-images.s3.amazonaws.com/mohawk/rmlcdl19_91.jpg,,54.33 Inches,All Grades,All Grades,Wood,Traditional Wood,Pecan,No,Mohawk,Mohawk Marcina Bourbon Pecan,No,Yes,Dark,Dark,Carton,0,CDL19-91,CDL19-91,CDL19-91,Pecan,Pecan,active,Hand-Scraped Wood,CDL19,Embossed,Texture,mmllc-images.s3.amazonaws.com/mohawk/lcdl19_91.jpg,,8 mm,,60.0,"6 1/8"""
residential,Mohawk,Mohawk,Marcina,Marcina,Harvest Sun Oak,93,,OpenLine,Pillowed/Pillowed,mmllc-images.s3.amazonaws.com/mohawk/rmlcdl19_93.jpg,,54.33 Inches,All Grades,All Grades,Wood,Traditional Wood,Oak,No,Mohawk,Mohawk Marcina Harvest Sun Oak,No,Yes,Medium,Medium,Carton,0,CDL19-93,CDL19-93,CDL19-93,Oak,Oak,active,Hand-Scraped Wood,CDL19,Embossed,Texture,mmllc-images.s3.amazonaws.com/mohawk/lcdl19_93.jpg,,8 mm,,60.0,"6 1/8"""
residential,Mohawk,Mohawk,Marcina,Marcina,Warm Cider Oak,94,,OpenLine,Pillowed/Pillowed,mmllc-images.s3.amazonaws.com/mohawk/rmlcdl19_94.jpg,,54.33 Inches,All Grades,All Grades,Wood,Traditional Wood,Oak,No,Mohawk,Mohawk Marcina Warm Cider Oak,No,Yes,Dark,Dark,Carton,0,CDL19-94,CDL19-94,CDL19-94,Oak,Oak,active,Hand-Scraped Wood,CDL19,Embossed,Texture,mmllc-images.s3.amazonaws.com/mohawk/lcdl19_94.jpg,,8 mm,,60.0,"6 1/8"""
residential,Mohawk,Mohawk,Marcina,Marcina,Smokehouse Oak,95,,OpenLine,Pillowed/Pillowed,mmllc-images.s3.amazonaws.com/mohawk/rmlcdl19_95.jpg,,54.33 Inches,All Grades,All Grades,Wood,Traditional Wood,Oak,No,Mohawk,Mohawk Marcina Smokehouse Oak,No,Yes,Dark,Dark,Carton,0,CDL19-95,CDL19-95,CDL19-95,Oak,Oak,active,Hand-Scraped Wood,CDL19,Embossed,Texture,mmllc-images.s3.amazonaws.com/mohawk/lcdl19_95.jpg,,8 mm,,60.0,"6 1/8"""
residential,Mohawk,Mohawk,Refined Artistry,Refined Artistry,Painted Timber,1,,OpenLine,Square/Square,mmllc-images.s3.amazonaws.com/mohawk/rmlcdl29_1.jpg,,47.25 Inches,All Grades,All Grades,Wood,Traditional Wood,Elm,No,Mohawk,Mohawk Refined Artistry Painted Timber,No,Yes,Dark,Dark,Carton,0,CDL29-1,CDL29-1,CDL29-1,Elm,Elm,active,,CDL29,Embossed,Texture,mmllc-images.s3.amazonaws.com/mohawk/lcdl29_1.jpg,,8 mm,,26.3,"7 1/2"""
residential,Mohawk,Mohawk,Refined Artistry,Refined Artistry,Weathered Grey,2,,OpenLine,Square/Square,mmllc-images.s3.amazonaws.com/mohawk/rmlcdl29_2.jpg,,47.25 Inches,All Grades,All Grades,Wood,Traditional Wood,Elm,No,Mohawk,Mohawk Refined Artistry Weathered Grey,No,Yes,Dark,Dark,Carton,0,CDL29-2,CDL29-2,CDL29-2,Elm,Elm,active,,CDL29,Embossed,Texture,mmllc-images.s3.amazonaws.com/mohawk/lcdl29_2.jpg,,8 mm,,26.3,"7 1/2"""
residential,Mohawk,Mohawk,Refined Artistry,Refined Artistry,Silver Dollar,3,,OpenLine,Square/Square,mmllc-images.s3.amazonaws.com/mohawk/rmlcdl29_3.jpg,,47.25 Inches,All Grades,All Grades,Wood,Traditional Wood,Elm,No,Mohawk,Mohawk Refined Artistry Silver Dollar,No,Yes,Medium,Medium,Carton,0,CDL29-3,CDL29-3,CDL29-3,Elm,Elm,active,,CDL29,Embossed,Texture,mmllc-images.s3.amazonaws.com/mohawk/lcdl29_3.jpg,,8 mm,,26.3,"7 1/2"""
residential,Mohawk,Mohawk,Painted Reserve,Painted Reserve,Kaffee Brown,1,,OpenLine,Square/Square,mmllc-images.s3.amazonaws.com/mohawk/rmlcdl30_1.jpg,,47.25 Inches,All Grades,All Grades,Wood,Traditional Wood,Chestnut,No,Mohawk,Mohawk Painted Reserve Kaffee Brown,No,Yes,Medium,Medium,Carton,0,CDL30-1,CDL30-1,CDL30-1,Chestnut,Chestnut,active,,CDL30,Embossed,Texture,mmllc-images.s3.amazonaws.com/mohawk/lcdl30_1.jpg,,8 mm,,26.3,"7 1/2"""
residential,Mohawk,Mohawk,Painted Reserve,Painted Reserve,Grey Slate,2,,OpenLine,Square/Square,mmllc-images.s3.amazonaws.com/mohawk/rmlcdl30_2.jpg,,47.25 Inches,All Grades,All Grades,Wood,Traditional Wood,Chestnut,No,Mohawk,Mohawk Painted Reserve Grey Slate,No,Yes,Dark,Dark,Carton,0,CDL30-2,CDL30-2,CDL30-2,Chestnut,Chestnut,active,,CDL30,Embossed,Texture,mmllc-images.s3.amazonaws.com/mohawk/lcdl30_2.jpg,,8 mm,,26.3,"7 1/2"""
residential,Mohawk,Mohawk,Painted Reserve,Painted Reserve,Soft Graphite,3,,OpenLine,Square/Square,mmllc-images.s3.amazonaws.com/mohawk/rmlcdl30_3.jpg,,47.25 Inches,All Grades,All Grades,Wood,Traditional Wood,Chestnut,No,Mohawk,Mohawk Painted Reserve Soft Graphite,No,Yes,Medium,Medium,Carton,0,CDL30-3,CDL30-3,CDL30-3,Chestnut,Chestnut,active,,CDL30,Embossed,Texture,mmllc-images.s3.amazonaws.com/mohawk/lcdl30_3.jpg,,8 mm,,26.3,"7 1/2"""
residential,Mohawk,Mohawk,Painted Reserve,Painted Reserve,Fresh Cream,4,,OpenLine,Square/Square,mmllc-images.s3.amazonaws.com/mohawk/rmlcdl30_4.jpg,,47.25 Inches,All Grades,All Grades,Wood,Traditional Wood,Chestnut,No,Mohawk,Mohawk Painted Reserve Fresh Cream,No,Yes,Light,Light,Carton,0,CDL30-4,CDL30-4,CDL30-4,Chestnut,Chestnut,active,,CDL30,Embossed,Texture,mmllc-images.s3.amazonaws.com/mohawk/lcdl30_4.jpg,,8 mm,,26.3,"7 1/2"""
residential,Mohawk,Mohawk,Reclaimed Chic,Reclaimed Chic,Grey Shadow,1,,OpenLine,Micro Beveled / Micro Beveled,mmllc-images.s3.amazonaws.com/mohawk/rmlcdl31_1.jpg,,47.25 Inches,All Grades,All Grades,Wood,Traditional Wood,Oak,No,Mohawk,Mohawk Reclaimed Chic Grey Shadow,No,Yes,Light,Light,Carton,0,CDL31-1,CDL31-1,CDL31-1,Oak,Oak,active,,CDL31,Embossed,Texture,mmllc-images.s3.amazonaws.com/mohawk/lcdl31_1.jpg,,12 mm,,33.0,"6 1/8"""
residential,Mohawk,Mohawk,Reclaimed Chic,Reclaimed Chic,Golden Honey,2,,OpenLine,Micro Beveled / Micro Beveled,mmllc-images.s3.amazonaws.com/mohawk/rmlcdl31_2.jpg,,47.25 Inches,All Grades,All Grades,Wood,Traditional Wood,Oak,No,Mohawk,Mohawk Reclaimed Chic Golden Honey,No,Yes,Light,Light,Carton,0,CDL31-2,CDL31-2,CDL31-2,Oak,Oak,active,,CDL31,Embossed,Texture,mmllc-images.s3.amazonaws.com/mohawk/lcdl31_2.jpg,,12 mm,,33.0,"6 1/8"""
residential,Mohawk,Mohawk,Reclaimed Chic,Reclaimed Chic,Silver Ivory,3,,OpenLine,Micro Beveled / Micro Beveled,mmllc-images.s3.amazonaws.com/mohawk/rmlcdl31_3.jpg,,47.25 Inches,All Grades,All Grades,Wood,Traditional Wood,Oak,No,Mohawk,Mohawk Reclaimed Chic Silver Ivory,No,Yes,Light,Light,Carton,0,CDL31-3,CDL31-3,CDL31-3,Oak,Oak,active,,CDL31,Embossed,Texture,mmllc-images.s3.amazonaws.com/mohawk/lcdl31_3.jpg,,12 mm,,33.0,"6 1/8"""
residential,Mohawk,Mohawk,Wooded Escape,Wooded Escape,Tuscan Earth,1,,OpenLine,Micro Beveled / Micro Beveled,mmllc-images.s3.amazonaws.com/mohawk/rmlcdl32_1.jpg,,47.25 Inches,All Grades,All Grades,Wood,Traditional Wood,Oak,No,Mohawk,Mohawk Wooded Escape Tuscan Earth,No,Yes,Medium,Medium,Carton,0,CDL32-1,CDL32-1,CDL32-1,Oak,Oak,active,,CDL32,Embossed,Texture,mmllc-images.s3.amazonaws.com/mohawk/lcdl32_1.jpg,,12 mm,,33.0,"6 1/8"""
residential,Mohawk,Mohawk,Wooded Escape,Wooded Escape,Fresh Bark,2,,OpenLine,Micro Beveled / Micro Beveled,mmllc-images.s3.amazonaws.com/mohawk/rmlcdl32_2.jpg,,47.25 Inches,All Grades,All Grades,Wood,Traditional Wood,Oak,No,Mohawk,Mohawk Wooded Escape Fresh Bark,No,Yes,Medium,Medium,Carton,0,CDL32-2,CDL32-2,CDL32-2,Oak,Oak,active,,CDL32,Embossed,Texture,mmllc-images.s3.amazonaws.com/mohawk/lcdl32_2.jpg,,12 mm,,33.0,"6 1/8"""
residential,Mohawk,Mohawk,Wooded Escape,Wooded Escape,Rustic Brown,3,,OpenLine,Micro Beveled / Micro Beveled,mmllc-images.s3.amazonaws.com/mohawk/rmlcdl32_3.jpg,,47.25 Inches,All Grades,All Grades,Wood,Traditional Wood,Oak,No,Mohawk,Mohawk Wooded Escape Rustic Brown,No,Yes,Medium,Medium,Carton,0,CDL32-3,CDL32-3,CDL32-3,Oak,Oak,active,,CDL32,Embossed,Texture,mmllc-images.s3.amazonaws.com/mohawk/lcdl32_3.jpg,,12 mm,,33.0,"6 1/8"""
residential,Mohawk,Mohawk,Artfully Designed,Artfully Designed,English Biscotti,1,,OpenLine,Micro Beveled / Micro Beveled,mmllc-images.s3.amazonaws.com/mohawk/rmlcdl37_1.jpg,,47.25 Inches,All Grades,All Grades,Wood,Traditional Wood,Oak,No,Mohawk,Mohawk Artfully Designed English Biscotti,No,Yes,Medium,Medium,Carton,0,CDL37-1,CDL37-1,CDL37-1,Oak,Oak,active,,CDL37,Embossed,Texture,mmllc-images.s3.amazonaws.com/mohawk/lcdl37_1.jpg,,12 mm,,33.0,"6 1/8"""
residential,Mohawk,Mohawk,Artfully Designed,Artfully Designed,Misty Barn,2,,OpenLine,Micro Beveled / Micro Beveled,mmllc-images.s3.amazonaws.com/mohawk/rmlcdl37_2.jpg,,47.25 Inches,All Grades,All Grades,Wood,Traditional Wood,Oak,No,Mohawk,Mohawk Artfully Designed Misty Barn,No,Yes,Dark,Dark,Carton,0,CDL37-2,CDL37-2,CDL37-2,Oak,Oak,active,,CDL37,Embossed,Texture,mmllc-images.s3.amazonaws.com/mohawk/lcdl37_2.jpg,,12 mm,,33.0,"6 1/8"""
residential,Mohawk,Mohawk,Artfully Designed,Artfully Designed,Grey Castle,3,,OpenLine,Micro Beveled / Micro Beveled,mmllc-images.s3.amazonaws.com/mohawk/rmlcdl37_3.jpg,,47.25 Inches,All Grades,All Grades,Wood,Traditional Wood,Oak,No,Mohawk,Mohawk Artfully Designed Grey Castle,No,Yes,Light,Light,Carton,0,CDL37-3,CDL37-3,CDL37-3,Oak,Oak,active,,CDL37,Embossed,Texture,mmllc-images.s3.amazonaws.com/mohawk/lcdl37_3.jpg,,12 mm,,33.0,"6 1/8"""
residential,Mohawk,Mohawk,Artfully Designed,Artfully Designed,Aged Cabin,4,,OpenLine,Micro Beveled / Micro Beveled,mmllc-images.s3.amazonaws.com/mohawk/rmlcdl37_4.jpg,,47.25 Inches,All Grades,All Grades,Wood,Traditional Wood,Oak,No,Mohawk,Mohawk Artfully Designed Aged Cabin,No,Yes,Medium,Medium,Carton,0,CDL37-4,CDL37-4,CDL37-4,Oak,Oak,active,,CDL37,Embossed,Texture,mmllc-images.s3.amazonaws.com/mohawk/lcdl37_4.jpg,,12 mm,,33.0,"6 1/8"""
residential,Mohawk,Mohawk,Barrington,Barrington,Country Natural Oak,2,,OpenLine,Eased Edge,mmllc-images.s3.amazonaws.com/mohawk/rmlcdl25_2.jpg,,47.25 Inches,All Grades,All Grades,Wood,Traditional Wood,Oak,No,Mohawk,Mohawk Barrington Country Natural Oak,No,Yes,Medium,Medium,Carton,0,CDL25-2,CDL25-2,CDL25-2,Oak,Oak,active,,CDL25,Smooth,Smooth,mmllc-images.s3.amazonaws.com/mohawk/lcdl25_2.jpg,,8 mm,,27.5,"4 7/8"""
residential,Mohawk,Mohawk,Barrington,Barrington,Rustic Suede Hickory,3,,OpenLine,Eased Edge,mmllc-images.s3.amazonaws.com/mohawk/rmlcdl25_3.jpg,,47.25 Inches,All Grades,All Grades,Wood,Traditional Wood,Hickory,No,Mohawk,Mohawk Barrington Rustic Suede Hickory,No,Yes,Medium,Medium,Carton,0,CDL25-3,CDL25-3,CDL25-3,Hickory,Hickory,active,,CDL25,Smooth,Smooth,mmllc-images.s3.amazonaws.com/mohawk/lcdl25_3.jpg,,8 mm,,27.5,"4 7/8"""
residential,Mohawk,Mohawk,Barrington,Barrington,Southern Autumn Hickory,5,,OpenLine,Eased Edge,mmllc-images.s3.amazonaws.com/mohawk/rmlcdl25_5.jpg,,47.25 Inches,All Grades,All Grades,Wood,Traditional Wood,Hickory,No,Mohawk,Mohawk Barrington Southern Autumn Hickory,No,Yes,Dark,Dark,Carton,0,CDL25-5,CDL25-5,CDL25-5,Hickory,Hickory,active,,CDL25,Smooth,Smooth,mmllc-images.s3.amazonaws.com/mohawk/lcdl25_5.jpg,,8 mm,,27.5,"4 7/8"""
residential,Mohawk,Mohawk,Barrington,Barrington,Bourbon Hickory,6,,OpenLine,Eased Edge,mmllc-images.s3.amazonaws.com/mohawk/rmlcdl25_6.jpg,,47.25 Inches,All Grades,All Grades,Wood,Traditional Wood,Hickory,No,Mohawk,Mohawk Barrington Bourbon Hickory,No,Yes,Dark,Dark,Carton,0,CDL25-6,CDL25-6,CDL25-6,Hickory,Hickory,active,,CDL25,Smooth,Smooth,mmllc-images.s3.amazonaws.com/mohawk/lcdl25_6.jpg,,8 mm,,27.5,"4 7/8"""
residential,Mohawk,Mohawk,Barrington,Barrington,Vintage Saddle Oak,7,,OpenLine,Eased Edge,mmllc-images.s3.amazonaws.com/mohawk/rmlcdl25_7.jpg,,47.25 Inches,All Grades,All Grades,Wood,Traditional Wood,Oak,No,Mohawk,Mohawk Barrington Vintage Saddle Oak,No,Yes,Dark,Dark,Carton,0,CDL25-7,CDL25-7,CDL25-7,Oak,Oak,active,,CDL25,Smooth,Smooth,mmllc-images.s3.amazonaws.com/mohawk/lcdl25_7.jpg,,8 mm,,27.5,"4 7/8"""
residential,Mohawk,Mohawk,Barrington,Barrington,Gingerbread Chestnut,8,,OpenLine,Eased Edge,mmllc-images.s3.amazonaws.com/mohawk/rmlcdl25_8.jpg,,47.25 Inches,All Grades,All Grades,Wood,Traditional Wood,Chestnut,No,Mohawk,Mohawk Barrington Gingerbread Chestnut,No,Yes,Medium,Medium,Carton,0,CDL25-8,CDL25-8,CDL25-8,Chestnut,Chestnut,active,,CDL25,Smooth,Smooth,mmllc-images.s3.amazonaws.com/mohawk/lcdl25_8.jpg,,8 mm,,27.5,"4 7/8"""
residential,Mohawk,Mohawk,Barrington,Barrington,Toasted Chestnut,9,,OpenLine,Eased Edge,mmllc-images.s3.amazonaws.com/mohawk/rmlcdl25_9.jpg,,47.25 Inches,All Grades,All Grades,Wood,Traditional Wood,Chestnut,No,Mohawk,Mohawk Barrington Toasted Chestnut,No,Yes,Medium,Medium,Carton,0,CDL25-9,CDL25-9,CDL25-9,Chestnut,Chestnut,active,,CDL25,Smooth,Smooth,mmllc-images.s3.amazonaws.com/mohawk/lcdl25_9.jpg,,8 mm,,27.5,"4 7/8"""
residential,Mohawk,Mohawk,Barrington,Barrington,Nutmeg Chestnut,10,,OpenLine,Eased Edge,mmllc-images.s3.amazonaws.com/mohawk/rmlcdl25_10.jpg,,47.25 Inches,All Grades,All Grades,Wood,Traditional Wood,Chestnut,No,Mohawk,Mohawk Barrington Nutmeg Chestnut,No,Yes,Medium,Medium,Carton,0,CDL25-10,CDL25-10,CDL25-10,Chestnut,Chestnut,active,,CDL25,Smooth,Smooth,mmllc-images.s3.amazonaws.com/mohawk/lcdl25_10.jpg,,8 mm,,27.5,"4 7/8"""
residential,Mohawk,Mohawk,Havermill,Havermill,Antique Leather Maple,1,,OpenLine,Micro/Micro,mmllc-images.s3.amazonaws.com/mohawk/rmlcdl72_1.jpg,,47.25 Inches,All Grades,All Grades,Wood,Traditional Wood,Maple,No,Mohawk,Mohawk Havermill Antique Leather Maple,No,Yes,Dark,Dark,Carton,0,CDL72-1,CDL72-1,CDL72-1,Maple,Maple,active,,CDL72,Embossed,Texture,mmllc-images.s3.amazonaws.com/mohawk/lcdl72_1.jpg,,12 mm,,30.5,"5 1/4"""
residential,Mohawk,Mohawk,Havermill,Havermill,Latte Sawn Oak,3,,OpenLine,Micro/Micro,mmllc-images.s3.amazonaws.com/mohawk/rmlcdl72_3.jpg,,47.25 Inches,All Grades,All Grades,Wood,Traditional Wood,Oak,No,Mohawk,Mohawk Havermill Latte Sawn Oak,No,Yes,Dark,Dark,Carton,0,CDL72-3,CDL72-3,CDL72-3,Oak,Oak,active,,CDL72,Embossed,Texture,mmllc-images.s3.amazonaws.com/mohawk/lcdl72_3.jpg,,12 mm,,30.5,"5 1/4"""
residential,Mohawk,Mohawk,Havermill,Havermill,Sunbeam Acacia,4,,OpenLine,Micro/Micro,mmllc-images.s3.amazonaws.com/mohawk/rmlcdl72_4.jpg,,47.25 Inches,All Grades,All Grades,Wood,Traditional Wood,Acacia,No,Mohawk,Mohawk Havermill Sunbeam Acacia,No,Yes,Dark,Dark,Carton,0,CDL72-4,CDL72-4,CDL72-4,Acacia,Acacia,active,,CDL72,Embossed,Texture,mmllc-images.s3.amazonaws.com/mohawk/lcdl72_4.jpg,,12 mm,,30.5,"5 1/4"""
residential,Mohawk,Mohawk,Havermill,Havermill,Buttercream Hickory,5,,OpenLine,Micro/Micro,mmllc-images.s3.amazonaws.com/mohawk/rmlcdl72_5.jpg,,47.25 Inches,All Grades,All Grades,Wood,Traditional Wood,Hickory,No,Mohawk,Mohawk Havermill Buttercream Hickory,No,Yes,Medium,Medium,Carton,0,CDL72-5,CDL72-5,CDL72-5,Hickory,Hickory,active,,CDL72,Embossed,Texture,mmllc-images.s3.amazonaws.com/mohawk/lcdl72_5.jpg,,12 mm,,30.5,"5 1/4"""
residential,Mohawk,Mohawk,Havermill,Havermill,Sunburst Walnut,7,,OpenLine,Micro/Micro,mmllc-images.s3.amazonaws.com/mohawk/rmlcdl72_7.jpg,,47.25 Inches,All Grades,All Grades,Wood,Traditional Wood,Walnut,No,Mohawk,Mohawk Havermill Sunburst Walnut,No,Yes,Dark,Dark,Carton,0,CDL72-7,CDL72-7,CDL72-7,Walnut,Walnut,active,,CDL72,Embossed,Texture,mmllc-images.s3.amazonaws.com/mohawk/lcdl72_7.jpg,,12 mm,,30.5,"5 1/4"""
residential,Mohawk,Mohawk,Havermill,Havermill,Crisp Autumn Oak,10,,OpenLine,Micro/Micro,mmllc-images.s3.amazonaws.com/mohawk/rmlcdl72_10.jpg,,47.25 Inches,All Grades,All Grades,Wood,Traditional Wood,Oak,No,Mohawk,Mohawk Havermill Crisp Autumn Oak,No,Yes,Medium,Medium,Carton,0,CDL72-10,CDL72-10,CDL72-10,Oak,Oak,active,,CDL72,Embossed,Texture,mmllc-images.s3.amazonaws.com/mohawk/lcdl72_10.jpg,,12 mm,,30.5,"5 1/4"""
residential,Mohawk,Mohawk,Havermill,Havermill,Smokey Oak,11,,OpenLine,Micro/Micro,mmllc-images.s3.amazonaws.com/mohawk/rmlcdl72_11.jpg,,47.25 Inches,All Grades,All Grades,Wood,Traditional Wood,Oak,No,Mohawk,Mohawk Havermill Smokey Oak,No,Yes,Dark,Dark,Carton,0,CDL72-11,CDL72-11,CDL72-11,Oak,Oak,active,,CDL72,Embossed,Texture,mmllc-images.s3.amazonaws.com/mohawk/lcdl72_11.jpg,,12 mm,,30.5,"5 1/4"""
residential,Mohawk,Mohawk,Havermill,Havermill,Soft Copper Oak,12,,OpenLine,Micro/Micro,mmllc-images.s3.amazonaws.com/mohawk/rmlcdl72_12.jpg,,47.25 Inches,All Grades,All Grades,Wood,Traditional Wood,Oak,No,Mohawk,Mohawk Havermill Soft Copper Oak,No,Yes,Medium,Medium,Carton,0,CDL72-12,CDL72-12,CDL72-12,Oak,Oak,active,,CDL72,Embossed,Texture,mmllc-images.s3.amazonaws.com/mohawk/lcdl72_12.jpg,,12 mm,,30.5,"5 1/4"""
residential,Mohawk,Mohawk,Havermill,Havermill,Stonewood,13,,OpenLine,Micro/Micro,mmllc-images.s3.amazonaws.com/mohawk/rmlcdl72_13.jpg,,47.25 Inches,All Grades,All Grades,Tile,Natural Stone & Tile,Tile,No,Mohawk,Mohawk Havermill Stonewood,No,Yes,Light,Light,Carton,0,CDL72-13,CDL72-13,CDL72-13,Tile,Natural Stone & Tile,active,,CDL72,Embossed,Texture,mmllc-images.s3.amazonaws.com/mohawk/lcdl72_13.jpg,,12 mm,,30.5,"5 1/4"""
residential,Mohawk,Mohawk,Havermill,Havermill,Honey Blonde Maple,14,,OpenLine,Micro/Micro,mmllc-images.s3.amazonaws.com/mohawk/rmlcdl72_14.jpg,,47.25 Inches,All Grades,All Grades,Wood,Traditional Wood,Maple,No,Mohawk,Mohawk Havermill Honey Blonde Maple,No,Yes,Light,Light,Carton,0,CDL72-14,CDL72-14,CDL72-14,Maple,Maple,active,,CDL72,Embossed,Texture,mmllc-images.s3.amazonaws.com/mohawk/lcdl72_14.jpg,,12 mm,,30.5,"5 1/4"""
residential,Mohawk,Mohawk,Havermill,Havermill,Havana Hickory,15,,OpenLine,Micro/Micro,mmllc-images.s3.amazonaws.com/mohawk/rmlcdl72_15.jpg,,47.25 Inches,All Grades,All Grades,Wood,Traditional Wood,Hickory,No,Mohawk,Mohawk Havermill Havana Hickory,No,Yes,Dark,Dark,Carton,0,CDL72-15,CDL72-15,CDL72-15,Hickory,Hickory,active,,CDL72,Embossed,Texture,mmllc-images.s3.amazonaws.com/mohawk/lcdl72_15.jpg,,12 mm,,30.5,"5 1/4"""
residential,Mohawk,Mohawk,Chalet Vista,Chalet Vista,Barnhouse Oak,1,,OpenLine,Micro/Micro,mmllc-images.s3.amazonaws.com/mohawk/rmlcdl73_1.jpg,,47.25 Inches,All Grades,All Grades,Wood,Traditional Wood,Oak,No,Mohawk,Mohawk Chalet Vista Barnhouse Oak,No,Yes,Medium,Medium,Carton,0,CDL73-1,CDL73-1,CDL73-1,Oak,Oak,active,,CDL73,Embossed,Texture,mmllc-images.s3.amazonaws.com/mohawk/lcdl73_1.jpg,,8 mm,,26.3,"7 1/2"""
residential,Mohawk,Mohawk,Chalet Vista,Chalet Vista,Canyon Echo Oak,2,,OpenLine,Micro/Micro,mmllc-images.s3.amazonaws.com/mohawk/rmlcdl73_2.jpg,,47.25 Inches,All Grades,All Grades,Wood,Traditional Wood,Oak,No,Mohawk,Mohawk Chalet Vista Canyon Echo Oak,No,Yes,Dark,Dark,Carton,0,CDL73-2,CDL73-2,CDL73-2,Oak,Oak,active,,CDL73,Embossed,Texture,mmllc-images.s3.amazonaws.com/mohawk/lcdl73_2.jpg,,8 mm,,26.3,"7 1/2"""
residential,Mohawk,Mohawk,Chalet Vista,Chalet Vista,Honeytone Oak,3,,OpenLine,Micro/Micro,mmllc-images.s3.amazonaws.com/mohawk/rmlcdl73_3.jpg,,47.25 Inches,All Grades,All Grades,Wood,Traditional Wood,Oak,No,Mohawk,Mohawk Chalet Vista Honeytone Oak,No,Yes,Medium,Medium,Carton,0,CDL73-3,CDL73-3,CDL73-3,Oak,Oak,active,,CDL73,Embossed,Texture,mmllc-images.s3.amazonaws.com/mohawk/lcdl73_3.jpg,,8 mm,,26.3,"7 1/2"""
residential,Mohawk,Mohawk,Chalet Vista,Chalet Vista,Midday Mocha Oak,4,,OpenLine,Micro/Micro,mmllc-images.s3.amazonaws.com/mohawk/rmlcdl73_4.jpg,,47.25 Inches,All Grades,All Grades,Wood,Traditional Wood,Oak,No,Mohawk,Mohawk Chalet Vista Midday Mocha Oak,No,Yes,Dark,Dark,Carton,0,CDL73-4,CDL73-4,CDL73-4,Oak,Oak,active,,CDL73,Embossed,Texture,mmllc-images.s3.amazonaws.com/mohawk/lcdl73_4.jpg,,8 mm,,26.3,"7 1/2"""
residential,Mohawk,Mohawk,Chalet Vista,Chalet Vista,Cheyenne Rock Oak,5,,OpenLine,Micro/Micro,mmllc-images.s3.amazonaws.com/mohawk/rmlcdl73_5.jpg,,47.25 Inches,All Grades,All Grades,Wood,Traditional Wood,Oak,No,Mohawk,Mohawk Chalet Vista Cheyenne Rock Oak,No,Yes,Dark,Dark,Carton,0,CDL73-5,CDL73-5,CDL73-5,Oak,Oak,active,,CDL73,Embossed,Texture,mmllc-images.s3.amazonaws.com/mohawk/lcdl73_5.jpg,,8 mm,,26.3,"7 1/2"""
residential,Mohawk,Mohawk,Chalet Vista,Chalet Vista,Chocolate Glazed Maple,6,,OpenLine,Micro/Micro,mmllc-images.s3.amazonaws.com/mohawk/rmlcdl73_6.jpg,,47.25 Inches,All Grades,All Grades,Wood,Traditional Wood,Maple,No,Mohawk,Mohawk Chalet Vista Chocolate Glazed Maple,No,Yes,Dark,Dark,Carton,0,CDL73-6,CDL73-6,CDL73-6,Maple,Maple,active,,CDL73,Embossed,Texture,mmllc-images.s3.amazonaws.com/mohawk/lcdl73_6.jpg,,8 mm,,26.3,"7 1/2"""
residential,Mohawk,Mohawk,Chalet Vista,Chalet Vista,White Weathered Pine,8,,OpenLine,Micro/Micro,mmllc-images.s3.amazonaws.com/mohawk/rmlcdl73_8.jpg,,47.25 Inches,All Grades,All Grades,Wood,Traditional Wood,Pine,No,Mohawk,Mohawk Chalet Vista White Weathered Pine,No,Yes,Light,Light,Carton,0,CDL73-8,CDL73-8,CDL73-8,Pine,Pine,active,,CDL73,Embossed,Texture,mmllc-images.s3.amazonaws.com/mohawk/lcdl73_8.jpg,,8 mm,,26.3,"7 1/2"""
residential,Mohawk,Mohawk,Chalet Vista,Chalet Vista,Beechwood Cream Oak,9,,OpenLine,Micro/Micro,mmllc-images.s3.amazonaws.com/mohawk/rmlcdl73_9.jpg,,47.25 Inches,All Grades,All Grades,Wood,Traditional Wood,Oak,No,Mohawk,Mohawk Chalet Vista Beechwood Cream Oak,No,Yes,Medium,Medium,Carton,0,CDL73-9,CDL73-9,CDL73-9,Oak,Oak,active,,CDL73,Embossed,Texture,mmllc-images.s3.amazonaws.com/mohawk/lcdl73_9.jpg,,8 mm,,26.3,"7 1/2"""
residential,Mohawk,Mohawk,Rare Vintage,Rare Vintage,Fawn Chestnut,1,,OpenLine,Micro/Micro,mmllc-images.s3.amazonaws.com/mohawk/rmlcdl74_1.jpg,,54.34 Inches,All Grades,All Grades,Wood,Traditional Wood,Chestnut,No,Mohawk,Mohawk Rare Vintage Fawn Chestnut,No,Yes,Medium,Medium,Carton,0,CDL74-1,CDL74-1,CDL74-1,Chestnut,Chestnut,active,,CDL74,Embossed,Texture,mmllc-images.s3.amazonaws.com/mohawk/lcdl74_1.jpg,,12 mm,,36.2,"7 1/2"""
residential,Mohawk,Mohawk,Rare Vintage,Rare Vintage,Cedar Chestnut,2,,OpenLine,Micro/Micro,mmllc-images.s3.amazonaws.com/mohawk/rmlcdl74_2.jpg,,54.34 Inches,All Grades,All Grades,Wood,Traditional Wood,Chestnut,No,Mohawk,Mohawk Rare Vintage Cedar Chestnut,No,Yes,Medium,Medium,Carton,0,CDL74-2,CDL74-2,CDL74-2,Chestnut,Chestnut,active,,CDL74,Embossed,Texture,mmllc-images.s3.amazonaws.com/mohawk/lcdl74_2.jpg,,12 mm,,36.2,"7 1/2"""
residential,Mohawk,Mohawk,Rare Vintage,Rare Vintage,Knotted Chestnut,3,,OpenLine,Micro/Micro,mmllc-images.s3.amazonaws.com/mohawk/rmlcdl74_3.jpg,,54.34 Inches,All Grades,All Grades,Wood,Traditional Wood,Chestnut,No,Mohawk,Mohawk Rare Vintage Knotted Chestnut,No,Yes,Dark,Dark,Carton,0,CDL74-3,CDL74-3,CDL74-3,Chestnut,Chestnut,active,,CDL74,Embossed,Texture,mmllc-images.s3.amazonaws.com/mohawk/lcdl74_3.jpg,,12 mm,,36.2,"7 1/2"""
residential,Mohawk,Mohawk,Rare Vintage,Rare Vintage,Earthen Chestnut,4,,OpenLine,Micro/Micro,mmllc-images.s3.amazonaws.com/mohawk/rmlcdl74_4.jpg,,54.34 Inches,All Grades,All Grades,Wood,Traditional Wood,Chestnut,No,Mohawk,Mohawk Rare Vintage Earthen Chestnut,No,Yes,Dark,Dark,Carton,0,CDL74-4,CDL74-4,CDL74-4,Chestnut,Chestnut,active,,CDL74,Embossed,Texture,mmllc-images.s3.amazonaws.com/mohawk/lcdl74_4.jpg,,12 mm,,36.2,"7 1/2"""
residential,Mohawk,Mohawk,Rare Vintage,Rare Vintage,Sandcastle Oak,5,,OpenLine,Micro/Micro,mmllc-images.s3.amazonaws.com/mohawk/rmlcdl74_5.jpg,,54.34 Inches,All Grades,All Grades,Wood,Traditional Wood,Oak,No,Mohawk,Mohawk Rare Vintage Sandcastle Oak,No,Yes,Light,Light,Carton,0,CDL74-5,CDL74-5,CDL74-5,Oak,Oak,active,,CDL74,Embossed,Texture,mmllc-images.s3.amazonaws.com/mohawk/lcdl74_5.jpg,,12 mm,,36.2,"7 1/2"""
residential,Mohawk,Mohawk,Rare Vintage,Rare Vintage,Driftwood Oak,6,,OpenLine,Micro/Micro,mmllc-images.s3.amazonaws.com/mohawk/rmlcdl74_6.jpg,,54.34 Inches,All Grades,All Grades,Wood,Traditional Wood,Oak,No,Mohawk,Mohawk Rare Vintage Driftwood Oak,No,Yes,Medium,Medium,Carton,0,CDL74-6,CDL74-6,CDL74-6,Oak,Oak,active,,CDL74,Embossed,Texture,mmllc-images.s3.amazonaws.com/mohawk/lcdl74_6.jpg,,12 mm,,36.2,"7 1/2"""
residential,Mohawk,Mohawk,Boardwalk Collective,Boardwalk Collective,Sand Dune,1,,OpenLine,Milled/Milled,mmllc-images.s3.amazonaws.com/mohawk/rmlcdl77_1.jpg,,47.25 Inches,All Grades,All Grades,Wood,Traditional Wood,Oak,No,Mohawk,Mohawk Boardwalk Collective Sand Dune,No,Yes,Medium,Medium,Carton,0,CDL77-1,CDL77-1,CDL77-1,Oak,Oak,active,,CDL77,Embossed,Texture,mmllc-images.s3.amazonaws.com/mohawk/lcdl77_1.jpg,,12 mm,,40.0,"7 1/2"""
residential,Mohawk,Mohawk,Boardwalk Collective,Boardwalk Collective,Beachwood,2,,OpenLine,Milled/Milled,mmllc-images.s3.amazonaws.com/mohawk/rmlcdl77_2.jpg,,47.25 Inches,All Grades,All Grades,Wood,Traditional Wood,Oak,No,Mohawk,Mohawk Boardwalk Collective Beachwood,No,Yes,Medium,Medium,Carton,0,CDL77-2,CDL77-2,CDL77-2,Oak,Oak,active,,CDL77,Embossed,Texture,mmllc-images.s3.amazonaws.com/mohawk/lcdl77_2.jpg,,12 mm,,40.0,"7 1/2"""
residential,Mohawk,Mohawk,Boardwalk Collective,Boardwalk Collective,Silver Shadow,3,,OpenLine,Milled/Milled,mmllc-images.s3.amazonaws.com/mohawk/rmlcdl77_3.jpg,,47.25 Inches,All Grades,All Grades,Wood,Traditional Wood,Oak,No,Mohawk,Mohawk Boardwalk Collective Silver Shadow,No,Yes,Light,Light,Carton,0,CDL77-3,CDL77-3,CDL77-3,Oak,Oak,active,,CDL77,Embossed,Texture,mmllc-images.s3.amazonaws.com/mohawk/lcdl77_3.jpg,,12 mm,,40.0,"7 1/2"""
residential,Mohawk,Mohawk,Boardwalk Collective,Boardwalk Collective,Boathouse Brown,4,,OpenLine,Milled/Milled,mmllc-images.s3.amazonaws.com/mohawk/rmlcdl77_4.jpg,,47.25 Inches,All Grades,All Grades,Wood,Traditional Wood,Oak,No,Mohawk,Mohawk Boardwalk Collective Boathouse Brown,No,Yes,Medium,Medium,Carton,0,CDL77-4,CDL77-4,CDL77-4,Oak,Oak,active,,CDL77,Embossed,Texture,mmllc-images.s3.amazonaws.com/mohawk/lcdl77_4.jpg,,12 mm,,40.0,"7 1/2"""
residential,Mohawk,Mohawk,Boardwalk Collective,Boardwalk Collective,Gulf Sand,5,,OpenLine,Milled/Milled,mmllc-images.s3.amazonaws.com/mohawk/rmlcdl77_5.jpg,,47.25 Inches,All Grades,All Grades,Wood,Traditional Wood,Oak,No,Mohawk,Mohawk Boardwalk Collective Gulf Sand,No,Yes,Light,Light,Carton,0,CDL77-5,CDL77-5,CDL77-5,Oak,Oak,active,,CDL77,Embossed,Texture,mmllc-images.s3.amazonaws.com/mohawk/lcdl77_5.jpg,,12 mm,,40.0,"7 1/2"""
residential,Mohawk,Mohawk,Boardwalk Collective,Boardwalk Collective,Graphite,6,,OpenLine,Milled/Milled,mmllc-images.s3.amazonaws.com/mohawk/rmlcdl77_6.jpg,,47.25 Inches,All Grades,All Grades,Wood,Traditional Wood,Oak,No,Mohawk,Mohawk Boardwalk Collective Graphite,No,Yes,Medium,Medium,Carton,0,CDL77-6,CDL77-6,CDL77-6,Oak,Oak,active,,CDL77,Embossed,Texture,mmllc-images.s3.amazonaws.com/mohawk/lcdl77_6.jpg,,12 mm,,40.0,"7 1/2"""
residential,Mohawk,Mohawk,Antique Craft,Antique Craft,Soft Chamois Oak,1,,OpenLine,GenuEdge Hydroseal,mmllc-images.s3.amazonaws.com/mohawk/rmlcdl78_1.jpg,,80.5 Inches,All Grades,All Grades,Wood,Traditional Wood,Oak,No,Mohawk,Mohawk Antique Craft Soft Chamois Oak,No,Yes,Light,Light,Carton,0,CDL78-1,CDL78-1,CDL78-1,Oak,Oak,active,,CDL78,Embossed,Texture,mmllc-images.s3.amazonaws.com/mohawk/lcdl78_1.jpg,,10 mm,,48.2,"9 1/2"""
residential,Mohawk,Mohawk,Antique Craft,Antique Craft,Stone Hearth Oak,2,,OpenLine,GenuEdge Hydroseal,mmllc-images.s3.amazonaws.com/mohawk/rmlcdl78_2.jpg,,80.5 Inches,All Grades,All Grades,Wood,Traditional Wood,Oak,No,Mohawk,Mohawk Antique Craft Stone Hearth Oak,No,Yes,Medium,Medium,Carton,0,CDL78-2,CDL78-2,CDL78-2,Oak,Oak,active,,CDL78,Embossed,Texture,mmllc-images.s3.amazonaws.com/mohawk/lcdl78_2.jpg,,10 mm,,48.2,"9 1/2"""
residential,Mohawk,Mohawk,Antique Craft,Antique Craft,Espresso Bark Oak,3,,OpenLine,GenuEdge Hydroseal,mmllc-images.s3.amazonaws.com/mohawk/rmlcdl78_3.jpg,,80.5 Inches,All Grades,All Grades,Wood,Traditional Wood,Oak,No,Mohawk,Mohawk Antique Craft Espresso Bark Oak,No,Yes,Medium,Medium,Carton,0,CDL78-3,CDL78-3,CDL78-3,Oak,Oak,active,,CDL78,Embossed,Texture,mmllc-images.s3.amazonaws.com/mohawk/lcdl78_3.jpg,,10 mm,,48.2,"9 1/2"""
residential,Mohawk,Mohawk,Antique Craft,Antique Craft,Cotton Knit Oak,4,,OpenLine,GenuEdge Hydroseal,mmllc-images.s3.amazonaws.com/mohawk/rmlcdl78_4.jpg,,80.5 Inches,All Grades,All Grades,Wood,Traditional Wood,Oak,No,Mohawk,Mohawk Antique Craft Cotton Knit Oak,No,Yes,Light,Light,Carton,0,CDL78-4,CDL78-4,CDL78-4,Oak,Oak,active,,CDL78,Embossed,Texture,mmllc-images.s3.amazonaws.com/mohawk/lcdl78_4.jpg,,10 mm,,48.2,"9 1/2"""
residential,Mohawk,Mohawk,Antique Craft,Antique Craft,Kindling Oak,5,,OpenLine,GenuEdge Hydroseal,mmllc-images.s3.amazonaws.com/mohawk/rmlcdl78_5.jpg,,80.5 Inches,All Grades,All Grades,Wood,Traditional Wood,Oak,No,Mohawk,Mohawk Antique Craft Kindling Oak,No,Yes,Medium,Medium,Carton,0,CDL78-5,CDL78-5,CDL78-5,Oak,Oak,active,,CDL78,Embossed,Texture,mmllc-images.s3.amazonaws.com/mohawk/lcdl78_5.jpg,,10 mm,,48.2,"9 1/2"""
residential,Mohawk,Mohawk,Sawmill Ridge,Sawmill Ridge,Gingerglow Oak,1,,OpenLine,GenuEdge Hydroseal,mmllc-images.s3.amazonaws.com/mohawk/rmlcdl79_1.jpg,,47.25 Inches,All Grades,All Grades,Wood,Traditional Wood,Oak,No,Mohawk,Mohawk Sawmill Ridge Gingerglow Oak,No,Yes,Medium,Medium,Carton,0,CDL79-1,CDL79-1,CDL79-1,Oak,Oak,active,,CDL79,Embossed,Texture,mmllc-images.s3.amazonaws.com/mohawk/lcdl79_1.jpg,,12 mm,,33.0,"6 1/8"""
residential,Mohawk,Mohawk,Sawmill Ridge,Sawmill Ridge,Wheat Field Oak,2,,OpenLine,GenuEdge Hydroseal,mmllc-images.s3.amazonaws.com/mohawk/rmlcdl79_2.jpg,,47.25 Inches,All Grades,All Grades,Wood,Traditional Wood,Oak,No,Mohawk,Mohawk Sawmill Ridge Wheat Field Oak,No,Yes,Medium,Medium,Carton,0,CDL79-2,CDL79-2,CDL79-2,Oak,Oak,active,,CDL79,Embossed,Texture,mmllc-images.s3.amazonaws.com/mohawk/lcdl79_2.jpg,,12 mm,,33.0,"6 1/8"""
residential,Mohawk,Mohawk,Sawmill Ridge,Sawmill Ridge,Mineral Oak,3,,OpenLine,GenuEdge Hydroseal,mmllc-images.s3.amazonaws.com/mohawk/rmlcdl79_3.jpg,,47.25 Inches,All Grades,All Grades,Wood,Traditional Wood,Oak,No,Mohawk,Mohawk Sawmill Ridge Mineral Oak,No,Yes,Medium,Medium,Carton,0,CDL79-3,CDL79-3,CDL79-3,Oak,Oak,active,,CDL79,Embossed,Texture,mmllc-images.s3.amazonaws.com/mohawk/lcdl79_3.jpg,,12 mm,,33.0,"6 1/8"""
residential,Mohawk,Mohawk,Sawmill Ridge,Sawmill Ridge,Nomadic Oak,4,,OpenLine,GenuEdge Hydroseal,mmllc-images.s3.amazonaws.com/mohawk/rmlcdl79_4.jpg,,47.25 Inches,All Grades,All Grades,Wood,Traditional Wood,Oak,No,Mohawk,Mohawk Sawmill Ridge Nomadic Oak,No,Yes,Medium,Medium,Carton,0,CDL79-4,CDL79-4,CDL79-4,Oak,Oak,active,,CDL79,Embossed,Texture,mmllc-images.s3.amazonaws.com/mohawk/lcdl79_4.jpg,,12 mm,,33.0,"6 1/8"""
residential,Mohawk,Mohawk,Elderwood,Elderwood,Sandbank Oak,1,,OpenLine,GenuEdge Hydroseal,mmllc-images.s3.amazonaws.com/mohawk/rmlcdl80_1.jpg,,54.34 Inches,All Grades,All Grades,Wood,Traditional Wood,Oak,No,Mohawk,Mohawk Elderwood Sandbank Oak,No,Yes,Medium,Medium,Carton,0,CDL80-1,CDL80-1,CDL80-1,Oak,Oak,active,,CDL80,Embossed,Texture,mmllc-images.s3.amazonaws.com/mohawk/lcdl80_1.jpg,,12 mm,,36.2,"7 1/2"""
residential,Mohawk,Mohawk,Elderwood,Elderwood,Bungalow Oak,2,,OpenLine,GenuEdge Hydroseal,mmllc-images.s3.amazonaws.com/mohawk/rmlcdl80_2.jpg,,54.34 Inches,All Grades,All Grades,Wood,Traditional Wood,Oak,No,Mohawk,Mohawk Elderwood Bungalow Oak,No,Yes,Medium,Medium,Carton,0,CDL80-2,CDL80-2,CDL80-2,Oak,Oak,active,,CDL80,Embossed,Texture,mmllc-images.s3.amazonaws.com/mohawk/lcdl80_2.jpg,,12 mm,,36.2,"7 1/2"""
residential,Mohawk,Mohawk,Elderwood,Elderwood,Asher Gray Oak,3,,OpenLine,GenuEdge Hydroseal,mmllc-images.s3.amazonaws.com/mohawk/rmlcdl80_3.jpg,,54.34 Inches,All Grades,All Grades,Wood,Traditional Wood,Oak,No,Mohawk,Mohawk Elderwood Asher Gray Oak,No,Yes,Medium,Medium,Carton,0,CDL80-3,CDL80-3,CDL80-3,Oak,Oak,active,,CDL80,Embossed,Texture,mmllc-images.s3.amazonaws.com/mohawk/lcdl80_3.jpg,,12 mm,,36.2,"7 1/2"""
residential,Mohawk,Mohawk,Elderwood,Elderwood,Aged Copper Oak,4,,OpenLine,GenuEdge Hydroseal,mmllc-images.s3.amazonaws.com/mohawk/rmlcdl80_4.jpg,,54.34 Inches,All Grades,All Grades,Wood,Traditional Wood,Oak,No,Mohawk,Mohawk Elderwood Aged Copper Oak,No,Yes,Dark,Dark,Carton,0,CDL80-4,CDL80-4,CDL80-4,Oak,Oak,active,,CDL80,Embossed,Texture,mmllc-images.s3.amazonaws.com/mohawk/lcdl80_4.jpg,,12 mm,,36.2,"7 1/2"""
residential,Mohawk,Mohawk,Festivalle Plus,Festivalle Plus,Cambridge Oak,10,,OpenLine,Square Edge,mmllc-images.s3.amazonaws.com/mohawk/rmlcdl17_10.jpg,Uniclic,47.25 Inches,All Grades,All Grades,Wood,Traditional Wood,Oak,No,Mohawk,Mohawk Festivalle Plus Cambridge Oak,No,Yes,Medium,Medium,Carton,0,CDL17-10,CDL17-10,CDL17-10,Oak,Oak,active,,CDL17,Embossed,Texture,mmllc-images.s3.amazonaws.com/mohawk/lcdl17_10.jpg,,7 mm,"25-Year Residential Warranty for Residential Use 
Mohawk Industries is so confident in the design and durability of our Mohawk laminate flooring products and accessories that we back them with a 25-Year Warranty. This warranty covers defects in material and/or workmanship which relate to joint integrity, staining, fading, and wear resistance during normal residential use.

Joint Integrity The Mohawk Uniclic® system will not fail. Stain Resistance Mohawk flooring will resist staining. Fade Resistance Mohawk flooring will resist fading from exposure to sunlight or artificial light. Wear Resistance Mohawk flooring wear layer will not wear through the design layer.",27.4,"7 1/2"""
residential,Mohawk,Mohawk,Festivalle Plus,Festivalle Plus,Burnished Brown Oak,11,,OpenLine,Square Edge,mmllc-images.s3.amazonaws.com/mohawk/rmlcdl17_11.jpg,Uniclic,47.25 Inches,All Grades,All Grades,Wood,Traditional Wood,Oak,No,Mohawk,Mohawk Festivalle Plus Burnished Brown Oak,No,Yes,Medium,Medium,Carton,0,CDL17-11,CDL17-11,CDL17-11,Oak,Oak,active,,CDL17,Embossed,Texture,mmllc-images.s3.amazonaws.com/mohawk/lcdl17_11.jpg,,7 mm,"25-Year Residential Warranty for Residential Use 
Mohawk Industries is so confident in the design and durability of our Mohawk laminate flooring products and accessories that we back them with a 25-Year Warranty. This warranty covers defects in material and/or workmanship which relate to joint integrity, staining, fading, and wear resistance during normal residential use.

Joint Integrity The Mohawk Uniclic® system will not fail. Stain Resistance Mohawk flooring will resist staining. Fade Resistance Mohawk flooring will resist fading from exposure to sunlight or artificial light. Wear Resistance Mohawk flooring wear layer will not wear through the design layer.",27.4,"7 1/2"""
residential,Mohawk,Mohawk,Festivalle Plus,Festivalle Plus,Tuscany Oak,12,,OpenLine,Square Edge,mmllc-images.s3.amazonaws.com/mohawk/rmlcdl17_12.jpg,Uniclic,47.25 Inches,All Grades,All Grades,Wood,Traditional Wood,Oak,No,Mohawk,Mohawk Festivalle Plus Tuscany Oak,No,Yes,Medium,Medium,Carton,0,CDL17-12,CDL17-12,CDL17-12,Oak,Oak,active,,CDL17,Embossed,Texture,mmllc-images.s3.amazonaws.com/mohawk/lcdl17_12.jpg,,7 mm,"25-Year Residential Warranty for Residential Use 
Mohawk Industries is so confident in the design and durability of our Mohawk laminate flooring products and accessories that we back them with a 25-Year Warranty. This warranty covers defects in material and/or workmanship which relate to joint integrity, staining, fading, and wear resistance during normal residential use.

Joint Integrity The Mohawk Uniclic® system will not fail. Stain Resistance Mohawk flooring will resist staining. Fade Resistance Mohawk flooring will resist fading from exposure to sunlight or artificial light. Wear Resistance Mohawk flooring wear layer will not wear through the design layer.",27.4,"7 1/2"""
residential,Mohawk,Mohawk,Festivalle Plus,Festivalle Plus,Golden Blonde Oak,13,,OpenLine,Square Edge,mmllc-images.s3.amazonaws.com/mohawk/rmlcdl17_13.jpg,Uniclic,47.25 Inches,All Grades,All Grades,Wood,Traditional Wood,Oak,No,Mohawk,Mohawk Festivalle Plus Golden Blonde Oak,No,Yes,Medium,Medium,Carton,0,CDL17-13,CDL17-13,CDL17-13,Oak,Oak,active,,CDL17,Embossed,Texture,mmllc-images.s3.amazonaws.com/mohawk/lcdl17_13.jpg,,7 mm,"25-Year Residential Warranty for Residential Use 
Mohawk Industries is so confident in the design and durability of our Mohawk laminate flooring products and accessories that we back them with a 25-Year Warranty. This warranty covers defects in material and/or workmanship which relate to joint integrity, staining, fading, and wear resistance during normal residential use.

Joint Integrity The Mohawk Uniclic® system will not fail. Stain Resistance Mohawk flooring will resist staining. Fade Resistance Mohawk flooring will resist fading from exposure to sunlight or artificial light. Wear Resistance Mohawk flooring wear layer will not wear through the design layer.",27.4,"7 1/2"""
residential,Mohawk,Mohawk,Crest Haven,Crest Haven,Wrought Iron Oak,02,,OpenLine,GenuEdge Hydroseal,mmllc-images.s3.amazonaws.com/mohawk/rmlcadl81_02.jpg,,54.34 Inches,All Grades,All Grades,Wood,Traditional Wood,Oak,No,Mohawk,Mohawk Crest Haven Wrought Iron Oak,No,Yes,Dark,Dark,Carton,0,CADL81-02,CADL81-02,CADL81-02,Oak,Oak,active,,CADL81,,EIR,mmllc-images.s3.amazonaws.com/mohawk/lcadl81_02.jpg,,12 mm,,36.2,"7 1/2"""
residential,Mohawk,Mohawk,Rare Vintage,Rare Vintage,Fawn Chestnut,01W,,OpenLine,Milled Hydroseal,mmllc-images.s3.amazonaws.com/mohawk/rmlcdl74w_01w.jpg,,54.34 Inches,All Grades,All Grades,Wood,Traditional Wood,Chestnut,No,Mohawk,Mohawk Rare Vintage Fawn Chestnut,No,Yes,Medium,Medium,Carton,0,CDL74W-01W,CDL74W-01W,CDL74W-01W,Chestnut,Chestnut,active,,CDL74W,,EIR,mmllc-images.s3.amazonaws.com/mohawk/lcdl74w_01w.jpg,,12 mm,,36.2,"7 1/2"""
residential,Mohawk,Mohawk,Rare Vintage,Rare Vintage,Cedar Chestnut,02W,,OpenLine,Milled Hydroseal,mmllc-images.s3.amazonaws.com/mohawk/rmlcdl74w_02w.jpg,,54.34 Inches,All Grades,All Grades,Wood,Traditional Wood,Chestnut,No,Mohawk,Mohawk Rare Vintage Cedar Chestnut,No,Yes,Medium,Medium,Carton,0,CDL74W-02W,CDL74W-02W,CDL74W-02W,Chestnut,Chestnut,active,,CDL74W,,EIR,mmllc-images.s3.amazonaws.com/mohawk/lcdl74w_02w.jpg,,12 mm,,36.2,"7 1/2"""
residential,Mohawk,Mohawk,Rare Vintage,Rare Vintage,Knotted Chestnut,03W,,OpenLine,Milled Hydroseal,mmllc-images.s3.amazonaws.com/mohawk/rmlcdl74w_03w.jpg,,54.34 Inches,All Grades,All Grades,Wood,Traditional Wood,Chestnut,No,Mohawk,Mohawk Rare Vintage Knotted Chestnut,No,Yes,Dark,Dark,Carton,0,CDL74W-03W,CDL74W-03W,CDL74W-03W,Chestnut,Chestnut,active,,CDL74W,,EIR,mmllc-images.s3.amazonaws.com/mohawk/lcdl74w_03w.jpg,,12 mm,,36.2,"7 1/2"""
residential,Mohawk,Mohawk,Rare Vintage,Rare Vintage,Earthen Chestnut,04W,,OpenLine,Milled Hydroseal,mmllc-images.s3.amazonaws.com/mohawk/rmlcdl74w_04w.jpg,,54.34 Inches,All Grades,All Grades,Wood,Traditional Wood,Chestnut,No,Mohawk,Mohawk Rare Vintage Earthen Chestnut,No,Yes,Dark,Dark,Carton,0,CDL74W-04W,CDL74W-04W,CDL74W-04W,Chestnut,Chestnut,active,,CDL74W,,EIR,mmllc-images.s3.amazonaws.com/mohawk/lcdl74w_04w.jpg,,12 mm,,36.2,"7 1/2"""
residential,Mohawk,Mohawk,Rare Vintage,Rare Vintage,Sandcastle Oak,05W,,OpenLine,Milled Hydroseal,mmllc-images.s3.amazonaws.com/mohawk/rmlcdl74w_05w.jpg,,54.34 Inches,All Grades,All Grades,Wood,Traditional Wood,Oak,No,Mohawk,Mohawk Rare Vintage Sandcastle Oak,No,Yes,Light,Light,Carton,0,CDL74W-05W,CDL74W-05W,CDL74W-05W,Oak,Oak,active,,CDL74W,,Random Embossed,mmllc-images.s3.amazonaws.com/mohawk/lcdl74w_05w.jpg,,12 mm,,36.2,"7 1/2"""
residential,Mohawk,Mohawk,Rare Vintage,Rare Vintage,Driftwood Oak,06W,,OpenLine,Milled Hydroseal,mmllc-images.s3.amazonaws.com/mohawk/rmlcdl74w_06w.jpg,,54.34 Inches,All Grades,All Grades,Wood,Traditional Wood,Oak,No,Mohawk,Mohawk Rare Vintage Driftwood Oak,No,Yes,Medium,Medium,Carton,0,CDL74W-06W,CDL74W-06W,CDL74W-06W,Oak,Oak,active,,CDL74W,,Random Embossed,mmllc-images.s3.amazonaws.com/mohawk/lcdl74w_06w.jpg,,12 mm,,36.2,"7 1/2"""
residential,Mohawk,Mohawk,Rare Vintage,Rare Vintage,Silverstone Chestnut,07W,,OpenLine,Milled Hydroseal,mmllc-images.s3.amazonaws.com/mohawk/rmlcdl74w_07w.jpg,,54.34 Inches,All Grades,All Grades,Wood,Traditional Wood,Chestnut,No,Mohawk,Mohawk Rare Vintage Silverstone Chestnut,No,Yes,Medium,Medium,Carton,0,CDL74W-07W,CDL74W-07W,CDL74W-07W,Chestnut,Chestnut,active,,CDL74W,,EIR,mmllc-images.s3.amazonaws.com/mohawk/lcdl74w_07w.jpg,,12 mm,,36.2,"7 1/2"""
residential,Mohawk,Mohawk,Rare Vintage,Rare Vintage,Doeskin Chestnut,08W,,OpenLine,Milled Hydroseal,mmllc-images.s3.amazonaws.com/mohawk/rmlcdl74w_08w.jpg,,54.34 Inches,All Grades,All Grades,Wood,Traditional Wood,Chestnut,No,Mohawk,Mohawk Rare Vintage Doeskin Chestnut,No,Yes,Medium,Medium,Carton,0,CDL74W-08W,CDL74W-08W,CDL74W-08W,Chestnut,Chestnut,active,,CDL74W,,EIR,mmllc-images.s3.amazonaws.com/mohawk/lcdl74w_08w.jpg,,12 mm,,36.2,"7 1/2"""
residential,Mohawk,Mohawk,Rare Vintage,Rare Vintage,Ashlar Oak,09W,,OpenLine,Milled Hydroseal,mmllc-images.s3.amazonaws.com/mohawk/rmlcdl74w_09w.jpg,,54.34 Inches,All Grades,All Grades,Wood,Traditional Wood,Oak,No,Mohawk,Mohawk Rare Vintage Ashlar Oak,No,Yes,Light,Light,Carton,0,CDL74W-09W,CDL74W-09W,CDL74W-09W,Oak,Oak,active,,CDL74W,,Random Embossed,mmllc-images.s3.amazonaws.com/mohawk/lcdl74w_09w.jpg,,12 mm,,36.2,"7 1/2"""
residential,Mohawk,Mohawk,Boardwalk Collective,Boardwalk Collective,Sand Dune,01W,,OpenLine,Milled Hydroseal,mmllc-images.s3.amazonaws.com/mohawk/rmlcdl77w_01w.jpg,,47.25 Inches,All Grades,All Grades,Wood,Traditional Wood,Oak,No,Mohawk,Mohawk Boardwalk Collective Sand Dune,No,Yes,Light,Light,Carton,0,CDL77W-01W,CDL77W-01W,CDL77W-01W,Oak,Oak,active,,CDL77W,,EIR,mmllc-images.s3.amazonaws.com/mohawk/lcdl77w_01w.jpg,,12 mm,,48.4,"7 1/2"""
residential,Mohawk,Mohawk,Boardwalk Collective,Boardwalk Collective,Beachwood,02W,,OpenLine,Milled Hydroseal,mmllc-images.s3.amazonaws.com/mohawk/rmlcdl77w_02w.jpg,,47.25 Inches,All Grades,All Grades,Wood,Traditional Wood,Oak,No,Mohawk,Mohawk Boardwalk Collective Beachwood,No,Yes,Medium,Medium,Carton,0,CDL77W-02W,CDL77W-02W,CDL77W-02W,Oak,Oak,active,,CDL77W,,EIR,mmllc-images.s3.amazonaws.com/mohawk/lcdl77w_02w.jpg,,12 mm,,48.4,"7 1/2"""
residential,Mohawk,Mohawk,Boardwalk Collective,Boardwalk Collective,Silver Shadow,03W,,OpenLine,Milled Hydroseal,mmllc-images.s3.amazonaws.com/mohawk/rmlcdl77w_03w.jpg,,47.25 Inches,All Grades,All Grades,Wood,Traditional Wood,Oak,No,Mohawk,Mohawk Boardwalk Collective Silver Shadow,No,Yes,Light,Light,Carton,0,CDL77W-03W,CDL77W-03W,CDL77W-03W,Oak,Oak,active,,CDL77W,,EIR,mmllc-images.s3.amazonaws.com/mohawk/lcdl77w_03w.jpg,,12 mm,,48.4,"7 1/2"""
residential,Mohawk,Mohawk,Boardwalk Collective,Boardwalk Collective,Boathouse Brown,04W,,OpenLine,Milled Hydroseal,mmllc-images.s3.amazonaws.com/mohawk/rmlcdl77w_04w.jpg,,47.25 Inches,All Grades,All Grades,Wood,Traditional Wood,Oak,No,Mohawk,Mohawk Boardwalk Collective Boathouse Brown,No,Yes,Dark,Dark,Carton,0,CDL77W-04W,CDL77W-04W,CDL77W-04W,Oak,Oak,active,,CDL77W,,EIR,mmllc-images.s3.amazonaws.com/mohawk/lcdl77w_04w.jpg,,12 mm,,48.4,"7 1/2"""
residential,Mohawk,Mohawk,Boardwalk Collective,Boardwalk Collective,Gulf Sand,05W,,OpenLine,Milled Hydroseal,mmllc-images.s3.amazonaws.com/mohawk/rmlcdl77w_05w.jpg,,47.25 Inches,All Grades,All Grades,Wood,Traditional Wood,Oak,No,Mohawk,Mohawk Boardwalk Collective Gulf Sand,No,Yes,Light,Light,Carton,0,CDL77W-05W,CDL77W-05W,CDL77W-05W,Oak,Oak,active,,CDL77W,,EIR,mmllc-images.s3.amazonaws.com/mohawk/lcdl77w_05w.jpg,,12 mm,,48.4,"7 1/2"""
residential,Mohawk,Mohawk,Boardwalk Collective,Boardwalk Collective,Graphite,06W,,OpenLine,Milled Hydroseal,mmllc-images.s3.amazonaws.com/mohawk/rmlcdl77w_06w.jpg,,47.25 Inches,All Grades,All Grades,Wood,Traditional Wood,Oak,No,Mohawk,Mohawk Boardwalk Collective Graphite,No,Yes,Dark,Dark,Carton,0,CDL77W-06W,CDL77W-06W,CDL77W-06W,Oak,Oak,active,,CDL77W,,EIR,mmllc-images.s3.amazonaws.com/mohawk/lcdl77w_06w.jpg,,12 mm,,48.4,"7 1/2"""
residential,Mohawk,Mohawk,Boardwalk Collective,Boardwalk Collective,Bleached Linen,07W,,OpenLine,Milled Hydroseal,mmllc-images.s3.amazonaws.com/mohawk/rmlcdl77w_07w.jpg,,47.25 Inches,All Grades,All Grades,Wood,Traditional Wood,Oak,No,Mohawk,Mohawk Boardwalk Collective Bleached Linen,No,Yes,Light,Light,Carton,0,CDL77W-07W,CDL77W-07W,CDL77W-07W,Oak,Oak,active,,CDL77W,,EIR,mmllc-images.s3.amazonaws.com/mohawk/lcdl77w_07w.jpg,,12 mm,,48.4,"7 1/2"""
residential,Mohawk,Mohawk,Boardwalk Collective,Boardwalk Collective,Sail Cloth,08W,,OpenLine,Milled Hydroseal,mmllc-images.s3.amazonaws.com/mohawk/rmlcdl77w_08w.jpg,,47.25 Inches,All Grades,All Grades,Wood,Traditional Wood,Oak,No,Mohawk,Mohawk Boardwalk Collective Sail Cloth,No,Yes,Light,Light,Carton,0,CDL77W-08W,CDL77W-08W,CDL77W-08W,Oak,Oak,active,,CDL77W,,EIR,mmllc-images.s3.amazonaws.com/mohawk/lcdl77w_08w.jpg,,12 mm,,48.4,"7 1/2"""
residential,Mohawk,Mohawk,Boardwalk Collective,Boardwalk Collective,Outerbanks,09W,,OpenLine,Milled Hydroseal,mmllc-images.s3.amazonaws.com/mohawk/rmlcdl77w_09w.jpg,,47.25 Inches,All Grades,All Grades,Wood,Traditional Wood,Oak,No,Mohawk,Mohawk Boardwalk Collective Outerbanks,No,Yes,Medium,Medium,Carton,0,CDL77W-09W,CDL77W-09W,CDL77W-09W,Oak,Oak,active,,CDL77W,,EIR,mmllc-images.s3.amazonaws.com/mohawk/lcdl77w_09w.jpg,,12 mm,,48.4,"7 1/2"""
residential,Mohawk,Mohawk,Boardwalk Collective,Boardwalk Collective,Wicker,10W,,OpenLine,Milled Hydroseal,mmllc-images.s3.amazonaws.com/mohawk/rmlcdl77w_10w.jpg,,47.25 Inches,All Grades,All Grades,Wood,Traditional Wood,Oak,No,Mohawk,Mohawk Boardwalk Collective Wicker,No,Yes,Dark,Dark,Carton,0,CDL77W-10W,CDL77W-10W,CDL77W-10W,Oak,Oak,active,,CDL77W,,EIR,mmllc-images.s3.amazonaws.com/mohawk/lcdl77w_10w.jpg,,12 mm,,48.4,"7 1/2"""
residential,Mohawk,Mohawk,Crest Haven,Crest Haven,Prairie House Oak,01,,OpenLine,GenuEdge Hydroseal,mmllc-images.s3.amazonaws.com/mohawk/rmlcdl81_01.jpg,,54.34 Inches,All Grades,All Grades,Wood,Traditional Wood,Oak,No,Mohawk,Mohawk Crest Haven Prairie House Oak,No,Yes,Dark,Dark,Carton,0,CDL81-01,CDL81-01,CDL81-01,Oak,Oak,active,,CDL81,,EIR,mmllc-images.s3.amazonaws.com/mohawk/lcdl81_01.jpg,,12 mm,,36.2,"7 1/2"""
residential,Mohawk,Mohawk,Crest Haven,Crest Haven,Wine Barrel Oak,03,,OpenLine,GenuEdge Hydroseal,mmllc-images.s3.amazonaws.com/mohawk/rmlcdl81_03.jpg,,54.34 Inches,All Grades,All Grades,Wood,Traditional Wood,Oak,No,Mohawk,Mohawk Crest Haven Wine Barrel Oak,No,Yes,Dark,Dark,Carton,0,CDL81-03,CDL81-03,CDL81-03,Oak,Oak,active,,CDL81,,EIR,mmllc-images.s3.amazonaws.com/mohawk/lcdl81_03.jpg,,12 mm,,36.2,"7 1/2"""
residential,Mohawk,Mohawk,Crest Haven,Crest Haven,Briarwood Oak,04,,OpenLine,GenuEdge Hydroseal,mmllc-images.s3.amazonaws.com/mohawk/rmlcdl81_04.jpg,,54.34 Inches,All Grades,All Grades,Wood,Traditional Wood,Oak,No,Mohawk,Mohawk Crest Haven Briarwood Oak,No,Yes,Dark,Dark,Carton,0,CDL81-04,CDL81-04,CDL81-04,Oak,Oak,active,,CDL81,,EIR,mmllc-images.s3.amazonaws.com/mohawk/lcdl81_04.jpg,,12 mm,,36.2,"7 1/2"""
residential,Mohawk,Mohawk,Crest Haven,Crest Haven,Summit Oak,05,,OpenLine,GenuEdge Hydroseal,mmllc-images.s3.amazonaws.com/mohawk/rmlcdl81_05.jpg,,54.34 Inches,All Grades,All Grades,Wood,Traditional Wood,Oak,No,Mohawk,Mohawk Crest Haven Summit Oak,No,Yes,Medium,Medium,Carton,0,CDL81-05,CDL81-05,CDL81-05,Oak,Oak,active,,CDL81,,EIR,mmllc-images.s3.amazonaws.com/mohawk/lcdl81_05.jpg,,12 mm,,36.2,"7 1/2"""
residential,Mohawk,Mohawk,Western Ridge,Western Ridge,Flint Rock Pine,01,,OpenLine,GenuEdge Hydroseal,mmllc-images.s3.amazonaws.com/mohawk/rmlcdl82_01.jpg,,54.34 Inches,All Grades,All Grades,Wood,Traditional Wood,Pine,No,Mohawk,Mohawk Western Ridge Flint Rock Pine,No,Yes,Dark,Dark,Carton,0,CDL82-01,CDL82-01,CDL82-01,Pine,Pine,active,,CDL82,,EIR,mmllc-images.s3.amazonaws.com/mohawk/lcdl82_01.jpg,,12 mm,,36.2,"7 1/2"""
residential,Mohawk,Mohawk,Western Ridge,Western Ridge,Windmill Pine,02,,OpenLine,GenuEdge Hydroseal,mmllc-images.s3.amazonaws.com/mohawk/rmlcdl82_02.jpg,,54.34 Inches,All Grades,All Grades,Wood,Traditional Wood,Pine,No,Mohawk,Mohawk Western Ridge Windmill Pine,No,Yes,Light,Light,Carton,0,CDL82-02,CDL82-02,CDL82-02,Pine,Pine,active,,CDL82,,EIR,mmllc-images.s3.amazonaws.com/mohawk/lcdl82_02.jpg,,12 mm,,36.2,"7 1/2"""
residential,Mohawk,Mohawk,Western Ridge,Western Ridge,Firelight Pine,03,,OpenLine,GenuEdge Hydroseal,mmllc-images.s3.amazonaws.com/mohawk/rmlcdl82_03.jpg,,54.34 Inches,All Grades,All Grades,Wood,Traditional Wood,Pine,No,Mohawk,Mohawk Western Ridge Firelight Pine,No,Yes,Medium,Medium,Carton,0,CDL82-03,CDL82-03,CDL82-03,Pine,Pine,active,,CDL82,,EIR,mmllc-images.s3.amazonaws.com/mohawk/lcdl82_03.jpg,,12 mm,,36.2,"7 1/2"""
residential,Mohawk,Mohawk,Western Ridge,Western Ridge,Buckhorn Pine,04,,OpenLine,GenuEdge Hydroseal,mmllc-images.s3.amazonaws.com/mohawk/rmlcdl82_04.jpg,,54.34 Inches,All Grades,All Grades,Wood,Traditional Wood,Pine,No,Mohawk,Mohawk Western Ridge Buckhorn Pine,No,Yes,Dark,Dark,Carton,0,CDL82-04,CDL82-04,CDL82-04,Pine,Pine,active,,CDL82,,EIR,mmllc-images.s3.amazonaws.com/mohawk/lcdl82_04.jpg,,12 mm,,36.2,"7 1/2"""
residential,Mohawk,Mohawk,Southbury,Southbury,French Beige,01,,OpenLine,GenuEdge Hydroseal,mmllc-images.s3.amazonaws.com/mohawk/rmlcdl85_01.jpg,,54.34 Inches,All Grades,All Grades,Wood,Traditional Wood,Oak,No,Mohawk,Mohawk Southbury French Beige,No,Yes,Medium,Medium,Carton,0,CDL85-01,CDL85-01,CDL85-01,Oak,Oak,active,,CDL85,,EIR,mmllc-images.s3.amazonaws.com/mohawk/lcdl85_01.jpg,,12 mm,,36.2,"7 1/2"""
residential,Mohawk,Mohawk,Southbury,Southbury,Medieval Gray,02,,OpenLine,GenuEdge Hydroseal,mmllc-images.s3.amazonaws.com/mohawk/rmlcdl85_02.jpg,,54.34 Inches,All Grades,All Grades,Wood,Traditional Wood,Oak,No,Mohawk,Mohawk Southbury Medieval Gray,No,Yes,Medium,Medium,Carton,0,CDL85-02,CDL85-02,CDL85-02,Oak,Oak,active,,CDL85,,EIR,mmllc-images.s3.amazonaws.com/mohawk/lcdl85_02.jpg,,12 mm,,36.2,"7 1/2"""
residential,Mohawk,Mohawk,Southbury,Southbury,Gravelstone,03,,OpenLine,GenuEdge Hydroseal,mmllc-images.s3.amazonaws.com/mohawk/rmlcdl85_03.jpg,,54.34 Inches,All Grades,All Grades,Wood,Traditional Wood,Oak,No,Mohawk,Mohawk Southbury Gravelstone,No,Yes,Light,Light,Carton,0,CDL85-03,CDL85-03,CDL85-03,Oak,Oak,active,,CDL85,,EIR,mmllc-images.s3.amazonaws.com/mohawk/lcdl85_03.jpg,,12 mm,,36.2,"7 1/2"""
residential,Mohawk,Mohawk,Southbury,Southbury,Cavalry,04,,OpenLine,GenuEdge Hydroseal,mmllc-images.s3.amazonaws.com/mohawk/rmlcdl85_04.jpg,,54.34 Inches,All Grades,All Grades,Wood,Traditional Wood,Oak,No,Mohawk,Mohawk Southbury Cavalry,No,Yes,Dark,Dark,Carton,0,CDL85-04,CDL85-04,CDL85-04,Oak,Oak,active,,CDL85,,EIR,mmllc-images.s3.amazonaws.com/mohawk/lcdl85_04.jpg,,12 mm,,36.2,"7 1/2"""
residential,Mohawk,Mohawk,Southbury,Southbury,Buff,05,,OpenLine,GenuEdge Hydroseal,mmllc-images.s3.amazonaws.com/mohawk/rmlcdl85_05.jpg,,54.34 Inches,All Grades,All Grades,Wood,Traditional Wood,Oak,No,Mohawk,Mohawk Southbury Buff,No,Yes,Light,Light,Carton,0,CDL85-05,CDL85-05,CDL85-05,Oak,Oak,active,,CDL85,,EIR,mmllc-images.s3.amazonaws.com/mohawk/lcdl85_05.jpg,,12 mm,,36.2,"7 1/2"""
residential,Mohawk,Mohawk,Woodcreek,Woodcreek,Worn Leather Oak,01,,OpenLine,Milled Hydroseal,mmllc-images.s3.amazonaws.com/mohawk/rmlcdl88_01.jpg,,47.25 Inches,All Grades,All Grades,Wood,Traditional Wood,Oak,No,Mohawk,Mohawk Woodcreek Worn Leather Oak,No,Yes,Dark,Dark,Carton,0,CDL88-01,CDL88-01,CDL88-01,Oak,Oak,active,,CDL88,,EIR,mmllc-images.s3.amazonaws.com/mohawk/lcdl88_01.jpg,,12 mm,,,"7 1/2"""
residential,Mohawk,Mohawk,Woodcreek,Woodcreek,Elkhorn Oak,02,,OpenLine,Milled Hydroseal,mmllc-images.s3.amazonaws.com/mohawk/rmlcdl88_02.jpg,,47.25 Inches,All Grades,All Grades,Wood,Traditional Wood,Oak,No,Mohawk,Mohawk Woodcreek Elkhorn Oak,No,Yes,Dark,Dark,Carton,0,CDL88-02,CDL88-02,CDL88-02,Oak,Oak,active,,CDL88,,EIR,mmllc-images.s3.amazonaws.com/mohawk/lcdl88_02.jpg,,12 mm,,,"7 1/2"""
residential,Mohawk,Mohawk,Woodcreek,Woodcreek,Creekbed Oak,03,,OpenLine,Milled Hydroseal,mmllc-images.s3.amazonaws.com/mohawk/rmlcdl88_03.jpg,,47.25 Inches,All Grades,All Grades,Wood,Traditional Wood,Oak,No,Mohawk,Mohawk Woodcreek Creekbed Oak,No,Yes,Medium,Medium,Carton,0,CDL88-03,CDL88-03,CDL88-03,Oak,Oak,active,,CDL88,,EIR,mmllc-images.s3.amazonaws.com/mohawk/lcdl88_03.jpg,,12 mm,,,"7 1/2"""
residential,Mohawk,Mohawk,Woodcreek,Woodcreek,Outpost Oak,04,,OpenLine,Milled Hydroseal,mmllc-images.s3.amazonaws.com/mohawk/rmlcdl88_04.jpg,,47.25 Inches,All Grades,All Grades,Wood,Traditional Wood,Oak,No,Mohawk,Mohawk Woodcreek Outpost Oak,No,Yes,Medium,Medium,Carton,0,CDL88-04,CDL88-04,CDL88-04,Oak,Oak,active,,CDL88,,EIR,mmllc-images.s3.amazonaws.com/mohawk/lcdl88_04.jpg,,12 mm,,,"7 1/2"""
residential,Mohawk,Mohawk,Crest Haven,Crest Haven,Wrought Iron Oak,02,,OpenLine,GenuEdge Hydroseal,,,54.34 Inches,All Grades,All Grades,Wood,Traditional Wood,Oak,No,Mohawk,Mohawk Crest Haven Wrought Iron Oak,No,Yes,Dark,Dark,Carton,0,CDL81-02,CDL81-02,CDL81-02,Oak,Oak,active,,CDL81,,EIR,,,12 mm,,36.2,"7 1/2"""
